job_title:Data Scientist - Machine Learning
If you are a Data Scientist with Machine Learning experience, please read on!

Located in Palm Beach County, Florida, we are an AI solutions company specializing in web-based services which help clients understand how to unlock agility and intelligence giving them an advantage over competition. By identifying business cases and deploying deep learning models, we tighten operations, improve process, automate tasks and so much more!

We are growing and have much to do, so we are looking to add 3 more Data Scientists to the team who have a strong understanding of ML best practices to architect, design, and implement solutions using Data Science, Machine Learning, Predictive Analytics, Automation and Natural Language Processing.   Top Reasons to Work with Us   Located in a suite Downtown at the Gardens, we are a digital-transformation agency that was founded in a garage and brews its own beer :D 

Our company is comprised of mostly millennial employees who value experiences and quality-of-life over everything. Because of this, we often show appreciation by offering manicures, massages, movies and more! Not to mention, we made the 2018 Top Company Cultures List!!     What You Need for this Position   - Master's or PhD in Data Science, Mathematics, Statistics or the like

Knowledge or experience in:

- Machine learning languages
- Data analytics and visualization tools
- Frameworks for general machine learning
- Frameworks for neural network modeling
- Big data tools   What's In It for You   - Competitive salary DOE ($80-150k)
- Matching 401k 
- Paid parental leave for both primary and secondary parent
- Medical, Dental, Vision
- Free gym membership
- Work from home days
- Tuition reimbursement
- Unlimited PTO
- Weekly happy hour
- Catered Friday lunch
- Snacks, drinks and more!    So, if you are a Data Scientist with experience, please apply today!   

Job Summary

                             
                     
                         Location 
                             Palm Beach Gardens, FL 33410 
                     
                 
                             
                     
                         Job type 
                         Full Time, Employee 
                     
                 
                 
                     
                         Posted 
                         Today 
                     
                 
                 
                     
                         Industries 
                         Computer Software 
                     
                 
                 
                     
                         Education level 
                         Professional 
                     
                 
                 
                     
                         Career level 
                         Entry Level 
                     
                 
                             
                     
                         Reference code 
                         CV5-1501891104