job_title:Sr. Data Scientist
If you are a data scientist with 2+ years experience working on understand the "WHY" in data, please read on:

We are a quickly scaling startup that has found our niche in financial services - we help people in need of financial options that would not have been available to them otherwise. Once we established credibility in our space, we quickly realized we could build a platform to enable lenders to connect with their consumers in a more personalized way... which is what FinTech is all about right? Enabling, democratizing, and creating meaningful experiences ...to use finances to our consumer's benefits with clarity. 

So that's what we set out to build; A platform that gives best in-service to consumers, and a way for lenders to present, clear, transparent information. It's been so useful, that we've become a go-to, and will be rolling out a new product to enlist our clients to fully leverage a turnkey platform to their advantage. That's where you come in :)   Top Reasons to Work with Us   -Established credibility, a dedicated team (more on that), and an excellent culture that follows (or leads!)
-Opportunity to work on a product that warrants nimble pivots (the good kind). 
-A supportive executive team. We've done well because we trust each other, and allow an informal atmosphere that allows culture and product to flourish. This philosophy has served us well.   What You Will Be Doing   Advanced Machine Learning to help understand and improve deficiencies in how to best serve our customers. We are looking for someone who comes from a machine learning and/or statistical background who thinks outside the box and can not only build, but direct and communicate actionable insights.   What You Need for this Position   At Least 3 Years of experience and knowledge of:

- Python
- Data Science
- Statistical Modeling
- Algorithms   What's In It for You   - Vacation/PTO
- Medical
- Dental
- Vision
- Relocation
- Bonus
- 401k    So, if you are a Sr. Data Scientist wanted for SaaS Fintech helping people in nee with experience, please apply today!   

Job Summary

                             
                     
                         Location 
                             Phoenix, AZ 85001 
                     
                 
                             
                     
                         Job type 
                         Full Time, Employee 
                     
                 
                 
                     
                         Posted 
                         Today 
                     
                 
                 
                     
                         Industries 
                         Computer Software 
                     
                 
                 
                     
                         Education level 
                         Professional 
                     
                 
                 
                     
                         Career level 
                         Entry Level 
                     
                 
                             
                     
                         Reference code 
                         KW2-1519960100