job_title:Data Scientist
Terrific Contract Opportunity! 

Position:   Data Scientist

 

Location:  Broomfield, CO 80021

 

Term:  8 Months Contract

  

 

Day-to-Day Responsibilities:  
  
 
Data scientists use data and analytical ability to find and interpret rich data sources  
 
Manage large amounts of data despite hardware, software, and bandwidth constraints  
 
Merge data sources and ensure consistency of data sets  
 
Create visualizations to aid in understanding data and build mathematical models using the data  
 
Present and communicate the data insights/findings  
  

Is this a good fit? (Requirements):  
  
 
Minimum of 3 years of data science experience  
 
Deep experience with regression methods, machine learning like random forest, gradient boosting, etc highly valued  
  

 If this sounds like the perfect fit, Apply Today!  

Job Summary

                             
                     
                         Location 
                             Broomfield, CO 80021 
                     
                 
                             
                     
                         Job type 
                         Full Time 
                     
                 
                 
                     
                         Posted 
                         1 Days ago 
                     
                 
                 
                     
                         Industries 
                         Staffing/Employment Agencies 
                     
                 
                             
                     
                         Reference code 
                         162276