job_title:Sr. Data Scientist
Genuent is hiring a Senior Data Scientist. This would be a direct hire opportunity located in Houston, TX. If this is something you might be interested in, please send your updated resume to Mike Sabo:   MSabo@genuent.com      

 Per our client's specifications, candidates are required to be hourly W2 employees with our firm. US Citizens, Green Card holders and all other parties authorized to work in the US are encouraged to apply. We are unable to provide H1 visa sponsorship at this time.​ 

  Job Description: 
As part of the Data Analytics team, the Senior Data Scientist would work closely with the MapR team and the business functions to solve real-world oil and gas problems using machine learning and data science algorithms and methods.

This is an exciting opportunity for those with strong academic and professional background in information, data, mathematics, artificial intelligence, etc. to continue your career as a Senior Data Scientist, which is now one of the hottest jobs on the market.

  Skills /Qualifications:    	
 Minimum Master's degree and highly preferred a PhD degree or in pursuit of a PhD in computer/information/data science, mathematics and statistics, or related disciplines  	
 Skills: R, Spark, Scala, Python  	
 Strong academic background and career growth ambition  	
 Experience in oil & gas  	
 Quick learner, team player, pro-active self-starter with a can-do attitude          

Job Summary

                             
                     
                         Location 
                             Houston, TX 77002 
                     
                 
                             
                     
                         Job type 
                         Full Time, Employee 
                     
                 
                 
                     
                         Posted 
                         1 Days ago 
                     
                 
                 
                     
                         Industries 
                         Engineering Services 
                     
                 
                 
                     
                         Education level 
                         Master's Degree 
                     
                 
                 
                     
                         Career level 
                         Experienced (Non-Manager) 
                     
                 
                             
                     
                         Reference code 
                         19-01758