job_title:Data Scientist
Our client is seeking a Data Scientist.  
 ***U.S. Citizens and those authorized to work in the U.S. are encouraged to apply. We are unable to sponsor at this time.***  
 Must Have:   
3+ years of experience in a quantitative or technical work environment or advanced degree (PhD) in quantitative field (e.g. mathematics, economics, computer science, physics, neuroscience, operations research etc.) 
Experience with speech recognition software 
Ability to effectively work with business leads: strong communication skills, ability to synthesize conclusions for non-experts and desire to influence business decisions 
High comfort level with programming, e.g. languages such as SQL, Python, R, Scala, Java, C++, C#, PHP, etc. 
Knowledge of quantitative methods &ndash; statistics, machine learning, general data analysis 
Intense intellectual curiosity &ndash; strong desire to always be learning 
Analytical, creative, and innovative approach to solving open-ended problems 
Highly collaborative, team-player attitude  
&nbsp;  

Job Summary

                             
                     
                         Location 
                             Boston, MA 02110 
                     
                 
                             
                     
                         Job type 
                         Full Time, Employee 
                     
                 
                 
                     
                         Posted 
                         1 Days ago 
                     
                 
                             
                     
                         Reference code 
                         7920