job_title:Sr. Data Scientist - Healthcare Analytics
Located in beautiful Berkeley, CA, we have a passion for healthcare and are singularly focused on improving our healthcare system for all stakeholders – especially patients - by helping our clients make sense of complex data so they can answer their most challenging questions. We also believe that our distinctive capabilities shouldn’t perpetuate the inertial ‘zero sum game’ where success is measured by how much the winners take from the losers. Only in this way we will be able to positively impact the delivery of healthcare while building a successful company.   Top Reasons to Work with Us   - HUGE room for Growth
- Very Competitive Salary
- Great Work/Life Balance   What You Will Be Doing   Inform product strategy, influence the product roadmap, and guide product decisions by: 
•Accessing and analyzing rich healthcare data to generate insights and make proactive recommendations. 
•Formulating success metrics for optimizing healthcare resources and patient experience, creating visualizations to monitor them. 
•Designing and analyzing experiments to test new ideas for optimizing improving our client's precious resources. 
•Developing models and data-driven solutions that add material insight to our clients understanding of their business and their business environment   What You Need for this Position   •Minimum 2-5 years outside of PhD/Masters work working as a Data Scientist or Fellow.  
•PhD or Masters in a quantitative discipline: Computer Science, Statistics, Applied Mathematics, Operations Research, Engineering  
•Working knowledge of healthcare systems and healthcare terminology 
•Expert in analyzing large complex, multi-dimensional data sets with a variety of tools 
•Ability to thrive and demonstrate constant applied learning in highly complex, interdisciplinary, and dynamic work environment 
•Strong programming experience in Python or R   What's In It for You   For your hard work, you will be rewarded with a strong compensation package that includes a competitive base salary (D.O.E), excellent medical, dental and health benefits and other cool perks.    Interviews are ongoing so, please FULLY COMPLETE THE APPLICATION QUESTIONS INCLUDING THE SELF ASSESSMENT ASAP! Complete applications will receive priority!   

Job Summary

                             
                     
                         Location 
                             Berkeley, CA 94702 
                     
                 
                             
                     
                         Job type 
                         Full Time, Employee 
                     
                 
                 
                     
                         Posted 
                         Today 
                     
                 
                 
                     
                         Industries 
                         Healthcare Services 
                     
                 
                 
                     
                         Education level 
                         Professional 
                     
                 
                 
                     
                         Career level 
                         Entry Level 
                     
                 
                             
                     
                         Reference code 
                         SM1-1512937107