job_title:Lead Data Scientist - CNN, Deep Learning - RELOCATION OFFERED!
Are you an Expert with Convolutional Neural Networks?
Do you have Tensorflow experience?

If you said yes to the above questions, keep reading! 

We are a new, well-funded startup in West Hollywood, CA, using  Deep Learning to solve longstanding problems in the biology field. 

We are looking to bring on an a Lead Data Scientist who is a CNN Expert to our team ASAP!

**WE WILL RELOCATE THE RIGHT CANDIDATE!**       What You Need for this Position   - PhD, or published CNN expert
- Convolutional Neural Networks
- Deep Learning 
- Tensorflow

Plus Skills! (not required)
+ RNN
+ General Adversarial Networks or Autoencoders
+ Reinforcement Learning
+ Biology/Medical Related Skill Set      So, if you are a Lead Data Scientist who is a CNN Expert, please apply today!

Or, send your resume directly to   Stephanie.Cluney@CyberCoders.com      


CyberCoders will consider for Employment in the City of Los Angeles qualified Applicants with Criminal Histories in a manner consistent with the requirements of the Los Angeles Fair Chance Initiative for Hiring (Ban the Box) Ordinance. 

Job Summary

                             
                     
                         Location 
                             West Hollywood, CA 90038 
                     
                 
                             
                     
                         Job type 
                         Full Time, Employee 
                     
                 
                 
                     
                         Posted 
                         1 Days ago 
                     
                 
                 
                     
                         Industries 
                         Computer Software 
                     
                 
                 
                     
                         Education level 
                         Professional 
                     
                 
                 
                     
                         Career level 
                         Executive (SVP, VP, Department Head, etc) 
                     
                 
                             
                     
                         Reference code 
                         SC4-1395663187