job_title:ML -Data Scientist
MUST HAVE SKILLS:  
Hands-on Python programming skills and have experience in solving multiple types of machine learning problems (e.g. classification, regression, natural language processing, recommendation systems, time series analysis, anomaly detection, etc.) using open source Python libraries 
Experience with Data cleaning and data pre-processing skills 
Experience with Data Analytics and Visualization (e.g. Tableau, Alteryx, etc.) 
Experience with Data Modeling 
Experience with Model Deployment 
Ability to manage multiple assignments. 
Superior written and oral communication skills. 
&nbsp; 
 EDUCATION/CERTIFICATIONS:  
Bachelor's degree in computer science, information systems, statistics, or other related fields with 5 Years of Working Experience in the Field of AI/ML 
,or Master Degree with 3 Years of Working Experience in the Field of AI/ML 
or Doctoral Degree with 1 Year of Working Experience in the Field of AI/ML  

Job Summary

                             
                     
                         Location 
                             Irving, TX 
                     
                 
                             
                     
                         Job type 
                         Full Time, Temporary/Contract/Project 
                     
                 
                 
                     
                         Posted 
                         5 Days ago 
                     
                 
                 
                     
                         Industries 
                         Computer Software; Computer/IT Services