job_title:Senior Data Scientist
Title: Senior Data Scientist
  Location: Philadelphia, PA
  &nbsp;Duration: Full-time Senior Information Services  
 Technical /Professional Skills &amp; Competencies:   
Excellent understanding of ML, NLP, and statistical methodologies Excellent programming skills (Java/Python/R/Sas) Ability to test ideas and adapt methods quickly end to end from data extraction to implementation and validation Experience with search engines, classification algorithms, recommendation systems, and relevance evaluation methodologies a plus:  
 MUST-HAVES   
2+ years proven track record in the application of ML and NLP. 
Excellent programming skills (Java/Python/R/Sas) 
Computer science, or statistics degree from top school (Berkeley, Stanford, CMU, MIT&hellip;) 
Should have active Github account and contributor on github  
 Education and Background:  
Bachelor's degree in Computer Science, Statistics, Technology, or Engineering, strongly preferred, or equivalent work experience.
2+ years proven a track record in the application of ML and NLP.

Thanks,  

Job Summary

                             
                     
                         Location 
                             Philadelphia, PA 
                     
                 
                             
                     
                         Job type 
                         Full Time, Employee 
                     
                 
                 
                     
                         Posted 
                         1 Days ago 
                     
                 
                 
                     
                         Industries 
                         Management Consulting Services