job_title:Sr Data Scientist
Role: Senior Data Scientist 
Location: Houston, TX 
  
Responsibilities:  
Manage Project Deliverables as per timelines. 
Development, validation & testing of Machine Learning and deep learning Algorithm. 
Performance evaluation & fine tuning of model output. 
Liaise with different teams for implementation * Selecting features, building and optimizing classifiers using machine learning techniques  
                
Must have skills:  
Excellent understanding of machine learning techniques and deep learning algorithms. 
Good programing skill and experience with Python packages. 
Must be a senior professional of 12+ years of experience in data analytics * A Ph. D or MS degree with knowledge of Geology / Geoscience with functional knowledge as well as data knowledge. 
Driving end to end Analytics projects and assuring delivery of appropriate solutions in support of business objectives. 
Advanced Project Management knowledge and experience with proven track record in handling analytics projects * Responsible for managing resources and provides direction to the project team members for handling the business problem with the appropriate approach  
  
Good to have Skills: Experience with data visualization tools, such as PowerBI 
  
Must Have Skills (Top 3 technical skills only):  
Python 
R 
PowerBI  
  
Nice to have skills (Top 2 only):  
Machine Learning 
Data Analysis   

Job Summary

                             
                     
                         Location 
                             Hunters Creek Village, TX 
                     
                 
                             
                     
                         Job type 
                         Full Time, Temporary/Contract/Project 
                     
                 
                 
                     
                         Posted 
                         Today 
                     
                 
                 
                     
                         Industries 
                         Computer/IT Services 
                     
                 
                             
                     
                         Reference code 
                         165836_1560793096