job_title:Sr. Data Scientist - DC - $65/hr
Job Description

Role & Responsibilities
 
 Python 
 Machine Learning 
Obtain Public trust  
This role is hiring ASAP! Send me across a resume today and we can have interview as early as tomorrow!
 

Job Summary

                             
                     
                         Location 
                             Washington, DC 
                     
                 
                             
                     
                         Job type 
                         Full Time, Employee 
                     
                 
                 
                     
                         Posted 
                         2 Days ago 
                     
                 
                 
                     
                         Industries 
                         Staffing/Employment Agencies 
                     
                 
                 
                     
                         Education level 
                         Master's Degree 
                     
                 
                 
                     
                         Career level 
                         Experienced (Non-Manager) 
                     
                 
                             
                     
                         Reference code 
                         7.2.19_1562096480