job_title:Entry Level- Data Scientist
Position- Entry Level- Data Scientist: -  
 &nbsp;  
 Are you ready   to   take   your   technology   expertise   to   the   next   level?  
&nbsp; 
 About SynergisticIT-  
We are an IT staffing / placement and software development firm, specialized in Data science/Java/J2ee / Mean stack/ and cloud computing domain &amp; providing technically skilled and competent candidates to clients in Northern America and Canada since 2010. From staffing to full implementation of projects we provide the highest quality IT Services.&nbsp; 
 &nbsp;  
 Requirements-&nbsp;&nbsp;&nbsp;&nbsp;&nbsp;&nbsp;&nbsp;&nbsp;&nbsp;    
Academic degree in data science, applied math, economics, Data Science, CS or a related discipline. 
Knowledge of Perl, R, SQL and Python 
Hands-on experience through coursework or internship 
Excellent communication skills 
Knowledge of tools and techniques in machine learning  
 &nbsp;  
 Who should apply-?   
Candidates who want to make a career in Data Science. 
Willing to earn $65K-$95K/annum 
Willing to work for fortune 500 clients  
 &nbsp;  
 Our Candidates always get the projects with well-known IT firms like Google, Apple, PayPal Amazon etc. (Top Fortune Clients)  
 &nbsp;  
 Our screening process will consist of verbal and written technical assessment to shortlist candidates.&nbsp;  
&nbsp; 
Kindly do research on us at   http://www.synergisticit.com   
&nbsp; 
Interested candidates please send a word or PDF copy of your resume to  Email:    kajal@synergisticit.com   or call  510-274-2050- (Kajal)  
&nbsp; 
&nbsp; 
&nbsp; 
&nbsp;  

Job Summary

                 
                     
                         Location 
                             Jersey City, NJ 
                     
                 
                             
                     
                         Job type 
                         Full Time, Employee 
                     
                 
                 
                     
                         Posted 
                         2 Days ago 
                     
                 
                 
                     
                         Industries 
                         Computer Software