job_title:Data Scientist - Oil/Gas Industry
If you are a Data Scientist with experience, please read on!   Top Reasons to Work with Us   We are an international provider of geo-science data for oil and gas Exploration/Production companies. We utilize our extensive global geo-physical and geological data libraries that contact magnetic and gravity data, digital well logs, directional surveys, and seismic data to provide in depth data integration solutions and advanced processing/imaging services to our clients.   What You Will Be Doing   You will be supporting multiple branch projects using data analytics in data visualization, advanced statistics, predictive analytics, and machine learning in order to prepare long-term future development scenarios.

Responsibilities:
- Develop advanced analytics that will help geoscientists, geologists and petrophysicists access the critical and high quality data 
- Apply data mining and machine learning techniques, perform statistical analysis, and build high-quality prediction systems for our customers
- Model business problems to machine learning ones, map business data to dependent and independent features, perform proper feature engineering
- Conduct hyper parameter optimization to yield highest prediction accuracy to deploy the model to production
- Develop best practices internally and patterns for geophysical and geological machine learning, developing reusable technical components for demos and POCs.
- Explore, interpret, and analyze data sets for patterns of interest   What You Need for this Position   MUST HAVE:
- BS in related field; MS or PhD highly preferred
- 3+ years of professional Data Science experience
- Python programming
- Understand of Machine learning Techniques/algorithms. Ie: decision trees, gradient boosting methods
- ETL/Data warehousing experience
- Time series Analysis
- ML frameworks/tools: PyTorch, Tensorflow, etc
- Data visualization: matplotlib
- Applied Statistics: regression and distribution

NICE TO HAVE:
- Oil and Gas Industry experience is a BIG Bous
- Deep Learning/Deep Neural Networks
- Experience with massive data sets (raster data sets)
- Cloud computing with AWS and/or Azure   What's In It for You   - Competitive Salary
- 401(k) with 6% match
- Comprehensive Benefits Package
- Generous PTO
- Employee Stock Purchase Plan
- On-site Lunches everyday at no cost to employee    So, if you are a Data Scientist with experience, please apply today!   

Job Summary

                 
                     
                         Location 
                             Houston, TX 77067 
                     
                 
                             
                     
                         Job type 
                         Full Time, Employee 
                     
                 
                 
                     
                         Posted 
                         Today 
                     
                 
                 
                     
                         Industries 
                         Other/Not Classified 
                     
                 
                 
                     
                         Education level 
                         Professional 
                     
                 
                 
                     
                         Career level 
                         Entry Level 
                     
                 
                             
                     
                         Reference code 
                         KH4-1524230109