job_title:Senior Data Scientist/Engineer-Contract to Hire
Our client, a financial services firm located in New York City is looking for a Senior Data &nbsp;Scientist/ Engineer (contract to hire position). 
&nbsp; 
Responsibilities:  
Design and build data management platforms 
Manage and lead data engineering projects   
Help design analytical and technical solutions using a rigorous hypotheses-based approach, 
Partner with technical teams to build a development plan, and then help execute the development and implementation with a focus on high-impact return 
Capable in&nbsp; delivering &nbsp;projects/products from idea to production with a technology/data/quantitative focus  
&nbsp; 
Required:  
At least 4+ years professional work experience as a Data Scientist/Data Engineer   
Develop functional requirements and turn them into technical methods. 
Solid fundamentals, machine learning concepts, regression, clustering, Bayesian modeling, probability theory, stats 
Fluent in Python 
Java/Scala &nbsp;nice to have&nbsp; 
Expertise with database systems, SQL/NOSQL. Experience with SQL, and columnar databases highly preferred. 
Experienced with parallelization tools Hadoop/Spark 
Experienced with Cloud services and ML libraries - the tools are going to be in the cloud, GCP or Azure  
&nbsp;  

Job Summary

                 
                     
                         Location 
                             Manhattan, NY 10013 
                     
                 
                             
                     
                         Job type 
                         Full Time, Temporary/Contract/Project 
                     
                 
                 
                     
                         Posted 
                         1 Days ago 
                     
                 
                 
                     
                         Industries 
                         Banking; Financial Services; Other/Not Classified 
                     
                 
                             
                     
                         Reference code 
                         112531FC