job_title:Data Scientist With Machine Learning (Direct Client)
No Agency resume only USC and GC Looking for Data Scientist Experienced in Machine Learning.  Must be Local in California Location Job Description-  Minimum Education- MSPhD in Data Science with minimum 5 years experience  Experienced with standard data science tools and practices including Python, Numpy, Pandas, data cleaning and preprocessing,  Familiar with network protocols and tools such as Wireshark, Ostinato, GNS3NS-3, Scapy, Kamene  Understanding of dataset best practices including, trainvaltest splits, class (im)balance, outlier detectionremoval  Configuring virtual machines or Docker containers to run standalone simulations  Experienced with standard data science tools and practices including Python, Numpy, Pandas, data cleaning and preprocessing,  Familiar with network protocols and tools such as Wireshark, Ostinato, GNS3NS-3, Scapy, Kamene  Minimum Education- MSPhD in Data Science with minimum 5 years experience.  Feel free to Reach me Vasu 510-509-6471

Job Summary

                 
                     
                         Location 
                             Santa Clara, CA 95050 
                     
                 
                             
                     
                         Posted 
                         Today 
                     
                 
                             
                     
                         Reference code 
                         6874_8d23b89e5b5543137f67e669d4c902c7