job_title:Data Scientist
Data Scientist - Perm - New York, NY - $150k p/y 

Data Scientist Skills & Requirements 

The end client is unable to sponsor or transfer visas for this position; all parties authorized to work in the US without sponsorship are encouraged to apply.

Responsibilities:
* Work closely with our product team to understand funnel drop off and come up with product ideas
* Work closely with the marketing team to optimize our acquisition funnel
* Present conclusions to the executive team that can impact the strategic direction of the company
* Build a lead scoring model to help our customer support team prioritize.
* Model the time-lag of conversions using fun math like Gamma distributions
* Design an experiment to understand the causal impact of an outbound phone call on conversion rates
* Build web scrapers to track data 
* Migrate our data warehouse to Redshift
* Work on our underwriting engine, which turns out to be NP-complete and can be posed as a mixed integer programming problem
* Transcribe all our phone calls using speech-to-text and figure out ways to optimize customer support.

Requirements:
* Python
* Node.JS
* Scala
* R

Why Hays?

You will be working with a professional recruiter who has intimate knowledge of the Information Technology industry and market trends . Your Hays recruiter will lead you through a thorough screening process in order to understand your skills, experience, needs, and drivers. You will also get support on resume writing, interview tips, and career planning, so when there's a position you really want, you're fully prepared to get it. Additionally, if the position is a consulting role, Hays offers you the opportunity to enroll in full medical, dental or vision benefits.

* Medical 
* Dental 
* Vision 
* 401K 
* Life Insurance ($20,000 benefit)

Nervous about an upcoming interview? Unsure how to write a new resume?

Visit the Hays Career Advice section to learn top tips to help you stand out from the crowd when job hunting. 

Hays is an Equal Opportunity Employer.

Drug testing may be required; please contact a recruiter for more information.

 

Job Summary

                 
                     
                         Location 
                             New York, NY 
                     
                 
                             
                     
                         Job type 
                         Full Time, Employee 
                     
                 
                 
                     
                         Posted 
                         Today 
                     
                 
                 
                     
                         Industries 
                         Computer Software; Computer/IT Services 
                     
                 
                 
                     
                         Education level 
                         Unspecified 
                     
                 
                 
                     
                         Career level 
                         Experienced (Non-Manager) 
                     
                 
                             
                     
                         Reference code 
                         1099138_1564522629