job_title:Senior Data Scientist - Predictive Modeling/Insurance/Healthcare
If you are a Senior Data Scientist with at least 5 years of experience, please read on!

Located in the beautiful and historical city of Cambridge, we are a start up that is working to solve a broad range of business problems, starting with early identification of "creeping catastrophic" claims. Our products deliver our customer's actionable intelligence from large data sets. This will provide the adjuster with the greatest opportunity to positively influence claim outcomes. We are searching for talented Predictive Modelers 

If this description is enticing and you are looking to join at start up that is seeing some impressive growth, then please read on!     What You Will Be Doing   •Mine and analyze data pertaining to customers’ business experience to discover critical business insights
•Generate ideas for new products, from directing high-level concept formation to prototyping
•Synthesize research data, turning data to actionable insights and specific model requirements
•Quickly deploy out-of the-box solutions where possible, innovate when necessary
•Stay current with advancements in Machine Learning and advocate for the appropriate application of those advancements in our own products
•Work closely with engineers and production developers to ensure clear, effective communication within the team
•Occasionally develop short, optimized pieces of code   What You Need for this Position   More Than 5 Years of experience and knowledge of:

- Python
- Machine Learning/AI
- Hands on Experience building and implementing Predictive Models
- SQL
- Data Analysis

Preferred Candidates Will Have the Following:
- Insurance/Finance/ Banking Industry Experience
- M.S. or Ph.D   What's In It for You   - Competitive Base Salary
- Stock Options!
- Vacation/PTO
- Great Medical Package
- 401k    So, if you are a Senior Data Scientist with at least 5 years of experience, please apply today!   

Job Summary

                 
                     
                         Location 
                             Cambridge, MA 02138 
                     
                 
                             
                     
                         Job type 
                         Full Time, Employee 
                     
                 
                 
                     
                         Posted 
                         Today 
                     
                 
                 
                     
                         Industries 
                         Computer Software 
                     
                 
                 
                     
                         Education level 
                         Professional 
                     
                 
                 
                     
                         Career level 
                         Executive (SVP, VP, Department Head, etc) 
                     
                 
                             
                     
                         Reference code 
                         NS3-1529625108