job_title:Data Scientist
Data Scientist     
5708-1        Description     
AE Business Solutions is looking for an Data Scientist for 3+ month contract. This can be in Madison,Wi or downtown Chicago,IL.   
    
A big data expert who can analyze data for actionable insights by:
identifying the data-analytics problems that offer the greatest opportunities to the organization; determine the correct data sets and variables; collect large sets of structured and unstructured data
 from disparate sources; clean and validate the data to ensure accuracy, completeness, and uniformity; devise and apply models and algorithms to mine the stores of big data, analyze data to identify patterns, trends and projections; interpret data to discover solutions and opportunities; communicate findings to stakeholders at various levels within the organization.   
    
• MS or PhD in computer science or related field
• Strong knowledge of Python, AWS
• Experience with NLP, Deep Learning, classification, supervised and unsupervised learning    
More information to come.   
If you want to contribute your passion and skills in a team that values ambition and hard work, please send your resume to   careers@aebs.com     
AE Business Solutions cannot sponsor applicants for employment visas.
AE Business Solutions is an Equal Opportunity Employer. EOE/AA
   

Job Summary

                 
                     
                         Location 
                             Chicago, WI 
                     
                 
                             
                     
                         Job type 
                         Full Time, Employee 
                     
                 
                 
                     
                         Posted 
                         1 Days ago 
                     
                 
                 
                     
                         Industries 
                         Computer/IT Services 
                     
                 
                 
                     
                         Career level 
                         Experienced (Non-Manager) 
                     
                 
                             
                     
                         Reference code 
                         5708-1