job_title:Senior Data Scientist - Healthcare, Predictive Analytics
If you are a Data Scientist, Healthcare with experience, please read on!

We are a well-known and well-established SaaS company catering to a $3 trillion dollar industry!  We've been in the game for the past 30 years, and are now looking to build out our healthcare and financial services team!  We have an urgent need for a Senior Data Scientist with a healthcare background design and develop data-driven software solutions! 

If you're a Senior Data Scientist looking to have a positive impact on society, then please apply today!   Top Reasons to Work with Us   1.Industry Stability
2.Talented technical team
3.Upward career growth   What You Will Be Doing   Responsible for leading the design and development of advanced analytics initiatives. You will be the subject matter expert and manage the predictive modeling, data mining, statistical analysis, AI projects and decision models to address business issues related to healthcare management and payment models.   What You Need for this Position   5+ Years of professional experience and knowledge of:
•Master’s degree in Data Science
•Healthcare experience required
•Predictive Analytics, Data Modeling, Data Mining
•Proficiency with SQL 
•Ability to build Algorithms from scratch   What's In It for You   EXCELLENT benefits Including:
- Competitive salaries (DOE)
- Company paid healthcare 
- Vacation/PTO
- Medical
- Dental
- Vision
- 401(k)

** Partial Telecommute options!    So, if you are a Data Scientist, Healthcare with experience, please apply today!   

Job Summary

                 
                     
                         Location 
                             Santa Cruz, CA 95060 
                     
                 
                             
                     
                         Job type 
                         Full Time, Employee 
                     
                 
                 
                     
                         Posted 
                         Today 
                     
                 
                 
                     
                         Industries 
                         Computer Software 
                     
                 
                 
                     
                         Education level 
                         Professional 
                     
                 
                 
                     
                         Career level 
                         Executive (SVP, VP, Department Head, etc) 
                     
                 
                             
                     
                         Reference code 
                         BB7-1508884127