job_title:Data Scientist
Role-Data Scientist
  Location- San Jose - California  
 Desired Skills   
Data Science 
Informatica Powercenter. 
You should be able to work as an independent team member, capable of applying your own judgment in the areas of software development. 
You should have thorough knowledge of at least one development technology/ programming language, and the related tools.   

Job Summary

                 
                     
                         Location 
                             San Jose, CA 
                     
                 
                             
                     
                         Job type 
                         Full Time, Temporary/Contract/Project 
                     
                 
                 
                     
                         Posted 
                         Today 
                     
                 
                 
                     
                         Industries 
                         Management Consulting Services