job_title:Data Scientist - P&C Insurance
If you have 1-3 years of experience with Predictive Modeling (Insurance, Finance, Banking), please read on!

Located in Woodbridge NJ, we are the holding company for a group of insurance companies that employs 1,500 people and writes and services over $1 billion in personal lines premium in New England and New Jersey. Founded in 1982 on the premise that combining extraordinary underwriting rigor, unparalleled customer service, and teamwork by passionate, driven professionals will lead to high levels of sustainable success. 

These core values that were the foundation of our company continue to serve us well. We offer a stimulating and highly collegial work environment       What You Need for this Position   At Least 1-3 Years of experience and knowledge of:

- Python/R
- Machine Learning
- Predictive Modeling
- SQL

Nice to have:

- Experience in the insurance industry is preferred, but not required
- Data Science related M.S. or Ph.D in Stats, Applied Math.. etc
- Tableau   What's In It for You   - Competitive Base Salary (DOE)
- Vacation/PTO
- Great Medical Package
- 401k    So, if you are a Data Scientist with some Insurance/Finance experience, please apply today!  

Security Clearance will be needed - therefore, only US citizens can be considered. 

Job Summary

                 
                     
                         Location 
                             Woodbridge Township, NJ 07095 
                     
                 
                             
                     
                         Job type 
                         Full Time, Employee 
                     
                 
                 
                     
                         Posted 
                         Today 
                     
                 
                 
                     
                         Industries 
                         Insurance 
                     
                 
                 
                     
                         Education level 
                         Professional 
                     
                 
                 
                     
                         Career level 
                         Entry Level 
                     
                 
                             
                     
                         Reference code 
                         NS3-1537571102