job_title:Senior Data Scientist (Python, Tensorflow, Predictive Analytics)
If you are a Senior Data Scientist with 3+ years of PROFESSIONAL experience writing production-level code, please read on!

Situated in the SOMO district of San Francisco, CA, is a stimulating opportunity for a talented Data Scientist who wants to take their career to the next level. We are a well-funded mobile app that is helping users find discounted tickets to sporting events, concerts and various other special events. We are a nationally ranked mobile application with a wide range of awards and a huge customer base. 

For this role, we are looking for a Data Scientist who can develop state-of-the-art machine learning techniques and principles. We are looking for a curious mind who wants their work to make a large impact on how our users interact with our application but also help make the rest of our departments run smoothly. Help us utilize our data to build a new feature, create a better user experience, find a new market, the possibilities are endless! This person has extensive knowledge of machine learning fundamentals, that can build new algorithms as well as articulate ones that are currently being used.       What You Need for this Position   - Bachelor's in STEM 

At Least 3 Years of PROFESSIONAL Experience plus additional Knowledge of:

- Predictive Analytics
- Production-Level Code (Python preferred) 
- Deep Learning (Tensorflow, Keras, Theano, etc.) 
- Scale 
- D3.js   What's In It for You   - Competitive Salary
- Pre-IPO Equity 
- Flexible PTO 
- Catered Lunch (M-Th) 
- Relaxed Dress
- Fully Stocked Fridge 
- Company Happy Hours 
- Commuter Stipend 
- Friday Lunch Stipend 
- Medical
- Dental
- Vision
- 401k    So, if you are a Senior Data Scientist with deep learning experience, please apply today!   

Job Summary

                 
                     
                         Location 
                             San Francisco, CA 94107 
                     
                 
                             
                     
                         Job type 
                         Full Time, Employee 
                     
                 
                 
                     
                         Posted 
                         4 Days ago 
                     
                 
                 
                     
                         Industries 
                         Computer Software 
                     
                 
                 
                     
                         Education level 
                         Professional 
                     
                 
                 
                     
                         Career level 
                         Entry Level 
                     
                 
                             
                     
                         Reference code 
                         MC9-1523087115