job_title:Data Scientist
If you are a Data Scientist with experience, please read on!   Top Reasons to Work with Us   We are a cloud based solution dedicated to measuring and optimizing video experiences for every user, every time, on all devices. Our patent pending technology uses a completely unique approach that takes into consideration all the factors that influence the Quality of Experience (QoE) of Internet video to end users.   What You Will Be Doing   As our first established Data Scientist/Data-wrangling expert, you will be responsible for creating advanced queries in a high impact role while working primarily from home on a small team. You will also be involved in the development of a high throughput and highly available system.   What You Need for this Position   MUST HAVE:
- BS or higher in relevant field
- 3+ years of Data Science experience
- Strong Python, Java, or Perl programming experience
- Strong SQL experience, particularly creating advanced queries
- Quantitative analysis techniques (e.g., clustering, regression, pattern recognition, descriptive and inferential statistics)

NICE TO HAVE:
- Experience with modern video protocols ie: HLS/DASH
- Pandas
- SciKit
- Tensorflow   What's In It for You   - Competitive Salary DOE
- Comprehensive Benefits Package
- Stock options
- Casual work environment
- Work from Home
- Generous PTO    So, if you are a Data Scientist with experience, please apply today!  

Security Clearance will be needed - therefore, only US citizens can be considered. 

Job Summary

                 
                     
                         Location 
                             Seattle, WA 98101 
                     
                 
                             
                     
                         Job type 
                         Full Time, Employee 
                     
                 
                 
                     
                         Posted 
                         Today 
                     
                 
                 
                     
                         Industries 
                         Computer Software 
                     
                 
                 
                     
                         Education level 
                         Professional 
                     
                 
                 
                     
                         Career level 
                         Entry Level 
                     
                 
                             
                     
                         Reference code 
                         KH4-1534158106