job_title:Data Scientist
Data Scientist 
 If you are a Data Scientist with experience, please read on!   Top Reasons to Work with Us 
 Developing genomic tools to identify disease pathologies, and identify patient variation in trials.   What You Will Be Doing 
 - Develop cloud-friendly pipelines, integrating and analyzing multiple datasets
- Set up pipelines for data QC, imputation, and harmonization   What You Need for this Position 
 At Least 3 Years of experience and knowledge of:

- R
- Python
- GWAS
- BIoinformatics    
 So, if you are a Data Scientist with experience, please apply today!   - 
Applicants must be authorized to work in the U.S. 


CyberCoders, Inc is proud to be an Equal Opportunity Employer 

                        All qualified applicants will receive consideration for employment without regard to race, color, religion, sex, national origin, disability, protected veteran status, or any other characteristic protected by law.                     


Your Right to Work  – In compliance with federal law, all persons hired will be required to verify identity and eligibility to work in the United States and to complete the required employment eligibility verification document form upon hire.

Job Summary

                 
                     
                         Location 
                             San Diego, CA 92101 
                     
                 
                             
                     
                         Posted 
                         Today 
                     
                 
                             
                     
                         Reference code 
                         SM12-15414663