job_title:Data Scientist
Location: Bellevue, WA 
Duration: Fulltime 
&nbsp; 
 Description:  
- Client is seeking a Sr-level person (5-7 years in data science, or 2 years of data science + 3 years of engineering background) 
- Deep learning experience is a must! 
- No particular subject domain is required. 
- No specific learning technologies needed, but is preferred. 
- Strong analytic background, but not purely an academic type. 
- Needs to work with data scale and engineering systems. 
- Must be able to integrate rapidly. 
- Build data pipeline to complete data science tasks. 
- Will be working with 4 other people on data science team 
- Natural language processing is a plus! 
- Must have excellent communication skills. 
- Must be able to effectively explain results of analysis and research to group. 
- Must be able to talk through problems well and PowerPoint if needed. 
- Will be responsible for providing weekly updates to data science group and possibly ENG group 12 ppl. 
&nbsp; 
 Additional Information:  
Client is looking for a deep-learning research background for this role. They need someone that can come in and take their post-prototype platform to a deeper level. The Client&rsquo;s business problem is pushing the boundaries of what the current state-of-the-art is capable of and improving on that takes a deep understanding of how the tech works fundamentally. 
&nbsp; 
Shefali Tiwari 
Tel:&nbsp;&nbsp;&nbsp;&nbsp;&nbsp;&nbsp;&nbsp;(770) 755-1828  

Job Summary

                 
                     
                         Location 
                             Bellevue, WA 
                     
                 
                             
                     
                         Job type 
                         Full Time, Employee 
                     
                 
                 
                     
                         Posted 
                         2 Days ago 
                     
                 
                 
                     
                         Industries 
                         Other/Not Classified 
                     
                 
                             
                     
                         Reference code 
                         19-09056