job_title:Data Scientist
Data Scientist 
 If you are a Data Scientist with experience, please read on!     What You Will Be Doing 
 - Develop computational algorithms and statistical methods with large volumes of data
- Work with supervised and unsupervised Machine Learning techniques 
- Develop Algorithms 
- Work with distributed computing techniques - Hadoop and Spark
- Analyze, evaluate, and assess quantitative data   What You Need for this Position 
 Education: Bachelors degree in Data Science, Mathematics, Statistics, Analytics or related field 

- Machine Learning
- Deep Learning
- Data Mining 
- Python/R    
 So, if you are a Data Scientist with experience, please apply today!   - 
Applicants must be authorized to work in the U.S. 


CyberCoders, Inc is proud to be an Equal Opportunity Employer 

                        All qualified applicants will receive consideration for employment without regard to race, color, religion, sex, national origin, disability, protected veteran status, or any other characteristic protected by law.                     


Your Right to Work  – In compliance with federal law, all persons hired will be required to verify identity and eligibility to work in the United States and to complete the required employment eligibility verification document form upon hire.

Job Summary

                 
                     
                         Location 
                             Annapolis Junction, MD 20701 
                     
                 
                             
                     
                         Posted 
                         3 Days ago 
                     
                 
                             
                     
                         Reference code 
                         EO2-15418685