job_title:Senior Data Scientist - Manufacturing, Supply Chain Management
If you are a Senior Data Scientist with at least 4 years of experience, please read on!

We are an innovative and award-winning SaaS company that specializes in data-driven leadership & decision making. As a global company on a mission to help our customers consume data & insights, we strive to solve business problems by providing high-quality consultative services and customized solutions utilizing our unique and user-friendly data science platform.

Due to rapid company growth and increased demand for our services, we are seeking new Senior Data Scientist to help our clients explore innovative methods to solve manufacturing analysis and inventory & supply chain management problems using Machine & Deep Learning and Image Analytics.     What You Will Be Doing   You will be responsible for developing and executing roadmap, conceptualizing solutions, coding and implementing data science algorithms, and performing exploratory, machine learning, and advanced analytics to help clients understand and solve business problems, trace data-to-insights lifecycle, and make sense of data landscape and footprint.   What You Need for this Position   A Bachelor's Degree in Computer Science, Engineering, or similar/related field plus 5 Years of experience with and/or knowledge of:

- Advanced Analytics/Computer Vision Skills
- Python, R
- Deep Learning Frameworks
- Advanced Machine Learning
- Image Processing
- Large Scale, Structured & Unstructured Data   What's In It for You   - Competitive Salary
- Vacation/PTO
- Medical
- Dental
- Vision
- Bonus    So, if you are a Senior Data Scientist with at least 5 years of experience, apply today!  

Security Clearance will be needed - therefore, only US citizens can be considered. 

Job Summary

                 
                     
                         Location 
                             Santa Clara, CA 95050 
                     
                 
                             
                     
                         Job type 
                         Full Time, Employee 
                     
                 
                 
                     
                         Posted 
                         1 Days ago 
                     
                 
                 
                     
                         Industries 
                         Computer Software 
                     
                 
                 
                     
                         Education level 
                         Professional 
                     
                 
                 
                     
                         Career level 
                         Executive (SVP, VP, Department Head, etc) 
                     
                 
                             
                     
                         Reference code 
                         zc1-1544247100