job_title:Data Scientist
Talent Space is looking for a Data Scientist for our client in Palo Alto, CA
This is a 6-12 months contract.

  Data Scientist  
3-5+ years hands-on experience in in building models and developing algorithms for operations research, simulation, statistics, and machine learning
Programming skills with object oriented language (e.g. Python)
The person will be tasked with collecting data from our manufacturing logging software then develop a dashboard to highlight daily Pareto, failure alerts, as improve our system logging capability.
• Self-sufficient with an ability to thrive in an environment of autonomy amidst ambiguity
• Collaborative, flexible, open working style and an ability to establish trust and credibility.
• Ability to thrive in a fast-moving and constantly evolving high growth environment.

If interested, kindly send resumes to   lkrishnamoorthy@svtalentspace.com     

Job Summary

                 
                     
                         Location 
                             Palo Alto, CA 94302 
                     
                 
                             
                     
                         Job type 
                         Full Time, Temporary/Contract/Project 
                     
                 
                 
                     
                         Posted 
                         Today