job_title:Data Scientist - Mathematics/Computational modeling
If you are a Data Scientist with experience, please read on!   Top Reasons to Work with Us   - HUGE Room for Growth
- Great Work/Life Balance/Autonomy
- Competitive Pay   What You Will Be Doing   - Collaborate with development team in researching and implementing solutions for autonomous vehicle command and control. 
- Perform analysis on a wide range of large data-sets to validate quality solutions 
- Develop algorithms and software prototypes to solve complex analysis problems.   What You Need for this Position   At Least 5 Years of experience and knowledge of:

- Matlab
- Numerical Programming
- Deep Learning
- Robotics
- Neural network
- Python
- machine learning
- Algorithms   What's In It for You   - Vacation/PTO
- Medical
- Dental
- Vision
- Bonus
- 401k    So, if you are a Data Scientist with experience, please apply today!  

Security Clearance will be needed - therefore, only US citizens can be considered.


CyberCoders will consider for Employment in the City of Los Angeles qualified Applicants with Criminal Histories in a manner consistent with the requirements of the Los Angeles Fair Chance Initiative for Hiring (Ban the Box) Ordinance. 

Job Summary

                 
                     
                         Location 
                             Torrance, CA 90502 
                     
                 
                             
                     
                         Job type 
                         Full Time, Employee 
                     
                 
                 
                     
                         Posted 
                         2 Days ago 
                     
                 
                 
                     
                         Industries 
                         Aerospace and Defense 
                     
                 
                 
                     
                         Education level 
                         Professional 
                     
                 
                 
                     
                         Career level 
                         Entry Level 
                     
                 
                             
                     
                         Reference code 
                         at7-1539717104