job_title:Data Scientist
Description                                      
                                                In or ProKarma is currently seeking Data Scientists to join our team as a full-time employee in Portland, OR and Seattle, WA.                                                   
  
                       
                        Responsibilities                                           
                                                                        Interviewing key project stakeholders, documenting findings and making detailed recommendations, assess and frame the business problem, success criteria, and risks                                                                 
                                                                        Acquire and blend disparate data sources, which could be any format of internal structured, unstructured, external, or high volume                                                                 
                                                                        Exploratory data analysis, building visualization, dashboards and reports                                                                 
                                                                        Guide clients through processes to identify meaningful predictors and then engineer representative features into the data set                                                                 
                                                                        Understand best practices on core set predictive use cases & familiar with model libraries                                                                  
                       
                                       Qualifications                                                        
                                                                        2+ years’ experience conducting quantitative analysis                                                                 
                                                                        BA/BS Degree in Computer Science, Math, Physics, Engineering, Statistics or a related quantitative discipline preferred                                                                 
                                                                        Experience working with SQL, R, Python                                                                 
                                                                        Knowledge of statistics and experimental design                                                                 
                                                                        Strong analytical and problem-solving skills                                                                 
                                                                        Excellent written and verbal communication skills                                                                  
                       
                         Desired Qualifications                                           
                                                                        Advanced degrees                                                                 
                                                                        Experience working with distributed computing (Hadoop/Hive/Spark)                                                                 
                                                                        Experience with AWS, Azure or GCP                                                                 
                                                                        2+ years project experience in a professional setting                                                                 
~       In order to provide equal employment and advancement opportunities to all individuals, employment decisions at ProKarma are based exclusively on merit. ProKarma does not discriminate in employment opportunities or practices on the basis of race, color, religion, sex, including gender identity and identity expression, national origin, age, or any other characteristic protected by law.      
   

Job Summary

                 
                     
                         Location 
                             Multiple Cities, OR 
                     
                 
                             
                     
                         Job type 
                         Full Time, Employee 
                     
                 
                 
                     
                         Posted 
                         Today 
                     
                 
                 
                     
                         Industries 
                         Other/Not Classified 
                     
                 
                 
                     
                         Career level 
                         Experienced (Non-Manager) 
                     
                 
                             
                     
                         Reference code 
                         a0y2t00000wacebuar