job_title:Dealer Network Analytics Data Scientist
The Dealer Network Analytics Data Scientist is responsible for performing data mining and predictive analytics to help answer questions identifying key areas within the dealer network for performance improvement and predict future outcomes and trends. Based on the findings, the Data Scientist will make recommendations to management on possible actions to ensure desired outcome. This role will apply expertise in quantitative analysis and the presentation of data to "see beyond the numbers" and help inform, influence, support, and execute business decisions for the Network Development Leadership Team. 

Duties and responsibilities include but not limited to: 
 

Execute detailed back-end analysis, trending, forecasting and recommend changes to improve dealer and network performance 

Design, deploy and evaluate highly innovative statistical models and data mining techniques for predictive learning applications 

Establish scalable, efficient, automated processes for large scale data analyses, model development, model validation and model implementation 

Synthesize and analyze key findings to develop insights and recommendations to drive dealer network strategy 

Collaborate with internal teams to generate ideas and strategies based upon data-driven insights and recommendations 

Articulate the structure, components, and relationship of data models 

Use data necessary to answer business questions including data from data warehouse, operational systems, Hadoop, and external sources 

Develop relationships with leaders and key working partners in network development 

Provide insights to stakeholders to forecast outcomes, mitigate risks and capitalize on opportunities 
 

   

Job Summary

                 
                     
                         Location 
                             Auburn Hills, MI 
                     
                 
                             
                     
                         Job type 
                         Full Time, Employee 
                     
                 
                 
                     
                         Posted 
                         Today 
                     
                 
                 
                     
                         Industries 
                         Other/Not Classified 
                     
                 
                 
                     
                         Career level 
                         Experienced (Non-Manager) 
                     
                 
                             
                     
                         Reference code 
                         4268_5000488527410