job_title:Sr Data Scientist
Hi,   
    
 Please go through below Urgent job requirement If interested share updated Resume.  
    
 Role: Data Scientist  
  
Location:  Columbus, Ohio 
  
Duration: Long Term Contract 
  
Type: CTC 
  
Skills Required: Python/R, Statistical Data Analysis 
  
 Note: Above 8+ yrs experience required


 Please Interested candidates contact us at 6093781036 or   mohsinm@pronixinc.com     
   

Job Summary

                 
                     
                         Location 
                             Westerville, OH 43081 
                     
                 
                             
                     
                         Job type 
                         Full Time, Employee 
                     
                 
                 
                     
                         Posted 
                         Today 
                     
                 
                 
                     
                         Industries 
                         Computer/IT Services