job_title:Data Scientist - SAS, Python, AI Modeling - Kansas City, MO 4208
We have an immediate long-term contract opportunity with one of our largest clients in
  Kansas City, MO   for a   Data Scientist.   
The ideal candidate should have strong experience in model development, statistical methodologies or quantitative analysis experience in the financial services industry. Proficiency in Python and python packages for model building and scoring is required. Proficiency in open source Data Science IDE platforms like Syder, Jupyter, py Charm is required. Experience performing business analysis to include use of SAS JMP and Enterprise Miner is highly preferred.
 
 Knowledge of statistical modeling principles, concepts and techniques. Experience with working with cloud platform and supervised learning platforms like AZURE Machine Learning is preferred. Experience on AI and auto-ML platform is a plus. Ability to handle multiple tasks and interact effectively with a diverse team with a strong interpersonal skills is needed.   

For immediate consideration please contact: 
 
Paul 
 
PRIMUS Global Services 
 
Phone No: 972-753-6500 Ext: 204 
 
Email:    jobs@primusglobal.com     

Job Summary

                 
                     
                         Location 
                             Kansas city, MO 64101 
                     
                 
                             
                     
                         Job type 
                         Full Time, Employee 
                     
                 
                 
                     
                         Posted 
                         Today 
                     
                 
                 
                     
                         Industries 
                         Computer/IT Services 
                     
                 
                 
                     
                         Education level 
                         Bachelor's Degree 
                     
                 
                 
                     
                         Career level 
                         Experienced (Non-Manager) 
                     
                 
                             
                     
                         Reference code 
                         jpc - 4208-4209-8707