[
  "\"\"",
  "#",
  "$",
  "''",
  ",",
  "-LRB-",
  "-RRB-",
  ".",
  ":",
  "ADD",
  "AFX",
  "BES",
  "CC",
  "CD",
  "DT",
  "EX",
  "FW",
  "GW",
  "HVS",
  "HYPH",
  "IN",
  "JJ",
  "JJR",
  "JJS",
  "LS",
  "MD",
  "NFP",
  "NIL",
  "NN",
  "NNP",
  "NNPS",
  "NNS",
  "PDT",
  "PRP",
  "PRP$",
  "RB",
  "RBR",
  "RBS",
  "RP",
  "SP",
  "TO",
  "UH",
  "VB",
  "VBD",
  "VBG",
  "VBN",
  "VBP",
  "VBZ",
  "WDT",
  "WP",
  "WP$",
  "WRB",
  "XX",
  "_SP",
  "``",
  "that",
  "if",
  "as",
  "because",
  "while",
  "since",
  "like",
  "so",
  "than",
  "whether",
  "although",
  "though",
  "unless",
  "once",
  "cause",
  "upon",
  "till",
  "whereas",
  "whilst",
  "except",
  "despite",
  "wether",
  "but",
  "becuse",
  "whie",
  "it",
  "w/out",
  "albeit",
  "save",
  "besides",
  "becouse",
  "coz",
  "til",
  "ask",
  "i'd",
  "out",
  "near",
  "seince",
  "tho",
  "sice",
  "will",
  "That",
  "If",
  "As",
  "Because",
  "While",
  "Since",
  "Like",
  "So",
  "Than",
  "Whether",
  "Although",
  "Though",
  "Unless",
  "Once",
  "Cause",
  "Upon",
  "Till",
  "Whereas",
  "Whilst",
  "Except",
  "Despite",
  "Wether",
  "But",
  "Becuse",
  "Whie",
  "It",
  "W/Out",
  "Albeit",
  "Save",
  "Besides",
  "Becouse",
  "Coz",
  "Til",
  "Ask",
  "I'D",
  "Out",
  "Near",
  "Seince",
  "Tho",
  "Sice",
  "Will",
  "something",
  "anyone",
  "anything",
  "nothing",
  "someone",
  "everything",
  "everyone",
  "everybody",
  "nobody",
  "somebody",
  "anybody",
  "any1",
  "Something",
  "Anyone",
  "Anything",
  "Nothing",
  "Someone",
  "Everything",
  "Everyone",
  "Everybody",
  "Nobody",
  "Somebody",
  "Anybody",
  "Any1",
  "-PRON-",
  "I",
  "me",
  "you",
  "he",
  "him",
  "she",
  "her",
  "we",
  "us",
  "they",
  "them",
  "mine",
  "his",
  "hers",
  "its",
  "ours",
  "yours",
  "theirs",
  "myself",
  "yourself",
  "himself",
  "herself",
  "itself",
  "themself",
  "ourselves",
  "yourselves",
  "themselves",
  "Me",
  "You",
  "He",
  "Him",
  "She",
  "Her",
  "We",
  "Us",
  "They",
  "Them",
  "Mine",
  "His",
  "Hers",
  "Its",
  "Ours",
  "Yours",
  "Theirs",
  "Myself",
  "Yourself",
  "Himself",
  "Herself",
  "Itself",
  "Themself",
  "Ourselves",
  "Yourselves",
  "Themselves",
  "my",
  "your",
  "our",
  "their",
  "My",
  "Your",
  "Our",
  "Their",
  "not",
  "n't",
  "nt",
  "n\u2019t",
  "Not",
  "N'T",
  "Nt",
  "N\u2019T",
  "be",
  "have",
  "do",
  "get",
  "of",
  "am",
  "are",
  "'ve",
  "Be",
  "Have",
  "Do",
  "Get",
  "Of",
  "Am",
  "Are",
  "'Ve",
  "been",
  "Been",
  "being",
  "Being",
  "is",
  "'re",
  "'s",
  "has",
  "does",
  "Is",
  "'Re",
  "'S",
  "Has",
  "Does",
  "'m",
  "'d",
  "'M",
  "'D",
  "was",
  "were",
  "did",
  "had",
  "Was",
  "Were",
  "Did",
  "Had",
  "\t",
  "en",
  "\n",
  " ",
  "\")",
  "\"",
  "'",
  "'Cause",
  "'cause",
  "use",
  "'Xxxxx",
  "'Cos",
  "'cos",
  "Cos",
  "'Xxx",
  "'Coz",
  "'coz",
  "'Cuz",
  "'cuz",
  "Cuz",
  "'X",
  "'bout",
  "about",
  "'xxxx",
  "cos",
  "'xxx",
  "cuz",
  "'x",
  "'em",
  "'xx",
  "'ll",
  "'nuff",
  "enough",
  "uff",
  "(*_*)",
  "(",
  "_*)",
  "(-8",
  "(-d",
  "(-:",
  "(-;",
  "(-_-)",
  "_-)",
  "(._.)",
  "_.)",
  "(:",
  "(;",
  "(=",
  "(>_<)",
  "_<)",
  "(^_^)",
  "_^)",
  "(o:",
  "(x:",
  "(\u00ac_\u00ac)",
  "_\u00ac)",
  "(\u0ca0_\u0ca0)",
  "_\u0ca0)",
  "(x_x)",
  "(\u256f\u00b0\u25a1\u00b0\uff09\u256f\ufe35\u253b\u2501\u253b",
  "\u253b\u2501\u253b",
  ")-:",
  ")",
  "):",
  "-_-",
  "-",
  "-__-",
  "__-",
  "._.",
  "0.0",
  "0",
  "d.d",
  "0.o",
  "d.x",
  "0_0",
  "d_d",
  "0_o",
  "d_x",
  "10",
  "1",
  "dd",
  "a.m.",
  "a",
  ".m.",
  "x.x.",
  "xx",
  "p.m.",
  "p",
  "pm",
  "11",
  "12",
  "d",
  "2",
  "3",
  "4",
  "5",
  "6",
  "7",
  "8)",
  "8",
  "d)",
  "8-)",
  "d-)",
  "8-D",
  "8-d",
  "d-X",
  "8D",
  "8d",
  "dX",
  "9",
  ":'(",
  ":')",
  ":'-(",
  "'-(",
  ":'-)",
  "'-)",
  ":(",
  ":((",
  ":(((",
  "(((",
  ":()",
  ":)",
  ":))",
  ":)))",
  ")))",
  ":*",
  ":-(",
  ":-((",
  "-((",
  ":-(((",
  ":-)",
  ":-))",
  "-))",
  ":-)))",
  ":-*",
  ":-/",
  ":-0",
  ":-d",
  ":-3",
  ":->",
  ":-D",
  ":-X",
  ":-O",
  ":-o",
  ":-P",
  ":-p",
  ":-x",
  ":-]",
  ":-|",
  ":-}",
  ":/",
  ":0",
  ":d",
  ":1",
  ":3",
  ":>",
  ":D",
  ":X",
  ":O",
  ":o",
  ":P",
  ":p",
  ":x",
  ":]",
  ":o)",
  ":x)",
  ":|",
  ":}",
  ":\u2019(",
  ":\u2019)",
  ":\u2019-(",
  "\u2019-(",
  ":\u2019-)",
  "\u2019-)",
  ";)",
  ";",
  ";-)",
  ";-D",
  ";-d",
  ";-X",
  ";D",
  ";d",
  ";X",
  ";_;",
  "<.<",
  "<",
  "</3",
  "</d",
  "<3",
  "<d",
  "<33",
  "<dd",
  "<333",
  "333",
  "<ddd",
  "<space>",
  "ce>",
  "<xxxx>",
  "=(",
  "=",
  "=)",
  "=/",
  "=3",
  "=d",
  "=D",
  "=X",
  "=|",
  ">.<",
  ">",
  ">.>",
  ">:(",
  ">:o",
  ">:x",
  "><(((*>",
  "(*>",
  "@_@",
  "@",
  "Adm.",
  "adm.",
  "A",
  "dm.",
  "Xxx.",
  "Ai",
  "ai",
  "Xx",
  "n",
  "x'x",
  "x\u2019x",
  "Ak.",
  "Alaska",
  "ak.",
  "Xx.",
  "Ala.",
  "Alabama",
  "ala.",
  "la.",
  "Apr.",
  "April",
  "apr.",
  "pr.",
  "Xxx",
  "Ariz.",
  "Arizona",
  "ariz.",
  "iz.",
  "Xxxx.",
  "Ark.",
  "Arkansas",
  "ark.",
  "rk.",
  "Aug.",
  "August",
  "aug.",
  "ug.",
  "Bros.",
  "bros.",
  "B",
  "os.",
  "C++",
  "c++",
  "C",
  "X++",
  "Calif.",
  "California",
  "calif.",
  "if.",
  "Xxxxx.",
  "Ca",
  "can",
  "ca",
  "Can",
  "xxx",
  "ve",
  "v",
  "\u2019ve",
  "\u2019",
  "\u2019xx",
  "Co.",
  "co.",
  "Colo.",
  "Colorado",
  "colo.",
  "lo.",
  "Conn.",
  "Connecticut",
  "conn.",
  "nn.",
  "Corp.",
  "corp.",
  "rp.",
  "Could",
  "could",
  "uld",
  "Xxxxx",
  "D.C.",
  "d.c.",
  "D",
  ".C.",
  "X.X.",
  "Dare",
  "dare",
  "Xxxx",
  "Dec.",
  "December",
  "dec.",
  "ec.",
  "Del.",
  "Delaware",
  "del.",
  "el.",
  "oes",
  "Doin",
  "doing",
  "doin",
  "oin",
  "Doin'",
  "doin'",
  "in'",
  "Xxxx'",
  "Doin\u2019",
  "doin\u2019",
  "in\u2019",
  "Xxxx\u2019",
  "Dr.",
  "dr.",
  "E.G.",
  "e.g.",
  "E",
  ".G.",
  "E.g.",
  ".g.",
  "X.x.",
  "Feb.",
  "February",
  "feb.",
  "F",
  "eb.",
  "Fla.",
  "Florida",
  "fla.",
  "Ga.",
  "Georgia",
  "ga.",
  "G",
  "Gen.",
  "gen.",
  "en.",
  "Goin",
  "go",
  "going",
  "goin",
  "Goin'",
  "goin'",
  "Goin\u2019",
  "goin\u2019",
  "Gon",
  "gon",
  "na",
  "to",
  "Got",
  "got",
  "ta",
  "t",
  "Gov.",
  "gov.",
  "ov.",
  "H",
  "ave",
  "Havin",
  "having",
  "havin",
  "vin",
  "Havin'",
  "havin'",
  "Xxxxx'",
  "Havin\u2019",
  "havin\u2019",
  "Xxxxx\u2019",
  "would",
  "x",
  "ll",
  "l",
  "s",
  "\u2019d",
  "\u2019x",
  "\u2019ll",
  "\u2019s",
  "How",
  "how",
  "'y",
  "re",
  "r",
  "\u2019y",
  "\u2019re",
  "i",
  "going to",
  "gonna",
  "I.E.",
  "i.e.",
  ".E.",
  "I.e.",
  ".e.",
  "Ia.",
  "Iowa",
  "ia.",
  "Id.",
  "Idaho",
  "id.",
  "Ill.",
  "Illinois",
  "ill.",
  "ll.",
  "m",
  "Inc.",
  "inc.",
  "nc.",
  "Ind.",
  "Indiana",
  "ind.",
  "nd.",
  "\u2019m",
  "Jan.",
  "January",
  "jan.",
  "J",
  "an.",
  "Jr.",
  "jr.",
  "Jul.",
  "July",
  "jul.",
  "ul.",
  "Jun.",
  "June",
  "jun.",
  "un.",
  "Kan.",
  "Kansas",
  "kan.",
  "K",
  "Kans.",
  "kans.",
  "ns.",
  "Ky.",
  "Kentucky",
  "ky.",
  "La.",
  "Louisiana",
  "L",
  "Let",
  "let",
  "Lovin",
  "love",
  "loving",
  "lovin",
  "Lovin'",
  "lovin'",
  "Lovin\u2019",
  "lovin\u2019",
  "Ltd.",
  "ltd.",
  "td.",
  "Ma'am",
  "madam",
  "ma'am",
  "M",
  "'am",
  "Xx'xx",
  "Mar.",
  "March",
  "mar.",
  "ar.",
  "Mass.",
  "Massachusetts",
  "mass.",
  "ss.",
  "May.",
  "May",
  "may.",
  "ay.",
  "may",
  "Ma\u2019am",
  "ma\u2019am",
  "\u2019am",
  "Xx\u2019xx",
  "Md.",
  "md.",
  "Messrs.",
  "messrs.",
  "rs.",
  "Mich.",
  "Michigan",
  "mich.",
  "ch.",
  "Might",
  "might",
  "ght",
  "Minn.",
  "Minnesota",
  "minn.",
  "Miss.",
  "Mississippi",
  "miss.",
  "Mo.",
  "mo.",
  "Mont.",
  "mont.",
  "nt.",
  "Mr.",
  "mr.",
  "Mrs.",
  "mrs.",
  "Ms.",
  "ms.",
  "Mt.",
  "Mount",
  "mt.",
  "Must",
  "must",
  "ust",
  "N.C.",
  "North Carolina",
  "n.c.",
  "N",
  "N.D.",
  "North Dakota",
  "n.d.",
  ".D.",
  "N.H.",
  "New Hampshire",
  "n.h.",
  ".H.",
  "N.J.",
  "New Jersey",
  "n.j.",
  ".J.",
  "N.M.",
  "New Mexico",
  "n.m.",
  ".M.",
  "N.Y.",
  "New York",
  "n.y.",
  ".Y.",
  "Neb.",
  "Nebraska",
  "neb.",
  "Nebr.",
  "nebr.",
  "br.",
  "Need",
  "need",
  "eed",
  "Nev.",
  "Nevada",
  "nev.",
  "ev.",
  "Nothin",
  "nothin",
  "hin",
  "Nothin'",
  "nothin'",
  "Nothin\u2019",
  "nothin\u2019",
  "Nov.",
  "November",
  "nov.",
  "Nuthin",
  "nuthin",
  "Nuthin'",
  "nuthin'",
  "Nuthin\u2019",
  "nuthin\u2019",
  "O'clock",
  "o'clock",
  "O",
  "ock",
  "X'xxxx",
  "O.O",
  "o.o",
  "X.X",
  "O.o",
  "X.x",
  "O_O",
  "o_o",
  "X_X",
  "O_o",
  "X_x",
  "Oct.",
  "October",
  "oct.",
  "ct.",
  "Okla.",
  "Oklahoma",
  "okla.",
  "Ol",
  "old",
  "ol",
  "Ol'",
  "ol'",
  "Xx'",
  "Ol\u2019",
  "ol\u2019",
  "Xx\u2019",
  "Ore.",
  "Oregon",
  "ore.",
  "re.",
  "Ought",
  "ought",
  "O\u2019clock",
  "o\u2019clock",
  "X\u2019xxxx",
  "Pa.",
  "Pennsylvania",
  "pa.",
  "P",
  "Ph.D.",
  "ph.d.",
  "Xx.X.",
  "Prof.",
  "prof.",
  "of.",
  "Rep.",
  "rep.",
  "R",
  "ep.",
  "Rev.",
  "rev.",
  "S.C.",
  "South Carolina",
  "s.c.",
  "S",
  "Sen.",
  "sen.",
  "Sep.",
  "September",
  "sep.",
  "Sept.",
  "sept.",
  "pt.",
  "Sha",
  "shall",
  "sha",
  "Should",
  "should",
  "Somethin",
  "somethin",
  "Somethin'",
  "somethin'",
  "Somethin\u2019",
  "somethin\u2019",
  "St.",
  "st.",
  "Tenn.",
  "Tennessee",
  "tenn.",
  "T",
  "hat",
  "There",
  "there",
  "ere",
  "hey",
  "V.V",
  "v.v",
  "V",
  "V_V",
  "v_v",
  "Va.",
  "Virginia",
  "va.",
  "Wash.",
  "Washington",
  "wash.",
  "W",
  "sh.",
  "What",
  "what",
  "When",
  "when",
  "hen",
  "Where",
  "where",
  "Who",
  "who",
  "Why",
  "why",
  "Wis.",
  "Wisconsin",
  "wis.",
  "is.",
  "Wo",
  "wo",
  "Would",
  "XD",
  "xd",
  "XDD",
  "xdd",
  "XXX",
  "Y",
  "[-:",
  "[",
  "[:",
  "\\\")",
  "\\",
  "\\n",
  "\\x",
  "\\t",
  "^_^",
  "^",
  "^__^",
  "__^",
  "^___^",
  "a.",
  "x.",
  "and/or",
  "/or",
  "xxx/xx",
  "b.",
  "b",
  "c.",
  "c",
  "xxxx",
  "xx.",
  "d.",
  "xxxx'",
  "xxxx\u2019",
  "e.",
  "e",
  "em",
  "f.",
  "f",
  "g.",
  "g",
  "h.",
  "h",
  "i.",
  "j.",
  "j",
  "k.",
  "k",
  "l.",
  "m.",
  "xx'xx",
  "xx\u2019xx",
  "n.",
  "nuff",
  "o",
  "x'xxxx",
  "o.",
  "o.0",
  "x.d",
  "o.O",
  "x.X",
  "x.x",
  "o_0",
  "x_d",
  "o_O",
  "x_X",
  "x_x",
  "xx'",
  "xx\u2019",
  "x\u2019xxxx",
  "p.",
  "q.",
  "q",
  "r.",
  "s.",
  "t.",
  "u.",
  "u",
  "v.",
  "v.s.",
  ".s.",
  "vs.",
  "w.",
  "w",
  "w/o",
  "without",
  "x/x",
  "xD",
  "xX",
  "xDD",
  "xXX",
  "y'",
  "y",
  "x'",
  "all",
  "y.",
  "y\u2019",
  "x\u2019",
  "z.",
  "z",
  "\u00a0",
  "  ",
  "\u00af\\(\u30c4)/\u00af",
  "\u00af",
  ")/\u00af",
  "\u00af\\(x)/\u00af",
  "\u00e4.",
  "\u00e4",
  "\u00f6.",
  "\u00f6",
  "\u00fc.",
  "\u00fc",
  "\u0ca0_\u0ca0",
  "\u0ca0",
  "\u0ca0\ufe35\u0ca0",
  "x\ufe35x",
  "\u2014",
  "\u2018S",
  "\u2018s",
  "\u2018",
  "\u2018X",
  "\u2018x",
  "\u2019Cause",
  "\u2019cause",
  "\u2019Xxxxx",
  "\u2019Cos",
  "\u2019cos",
  "\u2019Xxx",
  "\u2019Coz",
  "\u2019coz",
  "\u2019Cuz",
  "\u2019cuz",
  "\u2019S",
  "\u2019X",
  "\u2019bout",
  "\u2019xxxx",
  "\u2019xxx",
  "\u2019em",
  "\u2019nuff",
  "\u2019\u2019",
  "ROOT",
  "compound",
  "nummod",
  "predet",
  "pobj||prep",
  "advmod||conj",
  "dobj||xcomp",
  "nsubj||ccomp",
  "dative",
  "advmod||xcomp",
  "dobj||ccomp",
  "dobj||conj",
  "prep||conj",
  "prep||nsubj",
  "prep||dobj",
  "advmod||ccomp",
  "case",
  "acl||dobj",
  "acl||nsubj",
  "appos||nsubj",
  "relcl||dobj",
  "relcl||nsubj",
  "appos||dobj",
  "prep||nsubjpass",
  "prep||advmod",
  "prep||acomp",
  "relcl||pobj",
  "acl||nsubjpass",
  "prep||pobj",
  "relcl||nsubjpass",
  "appos||nsubjpass",
  "advcl||nsubj",
  "FAC",
  "SKILL",
  "Project",
  "project",
  "ect",
  "experience",
  "nce",
  "in",
  "machine",
  "ine",
  "learning",
  "ing",
  "computational",
  "nal",
  "linguistics",
  "ics",
  "data",
  "ata",
  "modeling",
  "collection",
  "ion",
  "or",
  "knowledge",
  "dge",
  "engineering",
  "\r",
  "Knowledge",
  "Cloud",
  "cloud",
  "oud",
  "Computing",
  "computing",
  "technologies",
  "ies",
  "particularly",
  "rly",
  "the",
  "AWS",
  "aws",
  "environment",
  "ent",
  "Strong",
  "strong",
  "ong",
  "problem",
  "lem",
  "solving",
  "and",
  "critical",
  "cal",
  "thinking",
  "skills",
  "lls",
  "ability",
  "ity",
  "document",
  "research",
  "rch",
  "analysis",
  "sis",
  "BS",
  "bs",
  "/",
  "BA",
  "ba",
  "with",
  "ith",
  "years",
  "ars",
  "deep",
  "eep",
  "technical",
  "predictive",
  "ive",
  "analytics",
  "optimization",
  "Demonstrated",
  "demonstrated",
  "ted",
  "SAS",
  "sas",
  "QlikView",
  "qlikview",
  "Q",
  "iew",
  "XxxxXxxx",
  "SQL",
  "sql",
  "PL",
  "pl",
  "MATLAB",
  "matlab",
  "LAB",
  "XXXX",
  "similar",
  "lar",
  "statistical",
  "tools",
  "ols",
  "Design",
  "design",
  "ign",
  "develop",
  "lop",
  "evaluate",
  "ate",
  "innovative",
  "ML",
  "ml",
  "DL",
  "dl",
  "models",
  "els",
  "solve",
  "lve",
  "diverse",
  "rse",
  "challenges",
  "ges",
  "opportunities",
  "across",
  "oss",
  "industries",
  "Hands",
  "hands",
  "nds",
  "on",
  "software",
  "development",
  "Python",
  "python",
  "hon",
  "Java",
  "java",
  "ava",
  "Javascript",
  "javascript",
  "ipt",
  "Develops",
  "develops",
  "ops",
  "tests",
  "sts",
  "implements",
  "nts",
  "house",
  "Machine",
  "Learning",
  "algorithms",
  "hms",
  "Excellent",
  "excellent",
  "analytical",
  "written",
  "ten",
  "oral",
  "ral",
  "communications",
  "ons",
  "Deep",
  "expertise",
  "ise",
  "+4",
  "+",
  "+d",
  "Experience",
  "modelling",
  "using",
  "Supports",
  "supports",
  "rts",
  "generation",
  "an",
  "automated",
  "insights",
  "hts",
  "framework",
  "ork",
  "for",
  "business",
  "ess",
  "partners",
  "ers",
  "effectively",
  "ely",
  "interpret",
  "ret",
  "Provides",
  "provides",
  "des",
  "actionable",
  "ble",
  "through",
  "ugh",
  "science",
  "Personalization",
  "personalization",
  "Search",
  "search",
  "&",
  "Navigation",
  "navigation",
  "SEO",
  "seo",
  "Promotions",
  "promotions",
  "Supply",
  "supply",
  "ply",
  "Chain",
  "chain",
  "ain",
  "Services",
  "services",
  "ces",
  "other",
  "company",
  "any",
  "priorities",
  "etc",
  "some",
  "ome",
  "relational",
  "databases",
  "ses",
  "NoSQL",
  "nosql",
  "XxXXX",
  "stores",
  "res",
  "CGI",
  "cgi",
  "Federal",
  "federal",
  "seeking",
  "Data",
  "Scientists",
  "scientists",
  "assist",
  "ist",
  "new",
  "work",
  "within",
  "division",
  "one",
  "more",
  "ore",
  "following",
  "scientific",
  "fic",
  "programming",
  "algorithm",
  "thm",
  "Visualization",
  "visualization",
  "Tableau",
  "tableau",
  "eau",
  "Interact",
  "interact",
  "act",
  "customer",
  "mer",
  "directly",
  "tly",
  "understand",
  "eir",
  "problems",
  "ems",
  "help",
  "elp",
  "hem",
  "defining",
  "implementing",
  "scalable",
  "solutions",
  "Databricks",
  "databricks",
  "cks",
  "Extensive",
  "extensive",
  "Hive",
  "hive",
  "extracting",
  "aggregating",
  "TensorFlow",
  "tensorflow",
  "low",
  "XxxxxXxxx",
  "plus",
  "lus",
  "Master",
  "master",
  "ter",
  "degree",
  "ree",
  "Science",
  "Statistics",
  "statistics",
  "Optimization",
  "Physics",
  "physics",
  "related",
  "field",
  "eld",
  "building",
  "production",
  "ready",
  "ady",
  "systems",
  "practical",
  "MS",
  "ms",
  "PhD",
  "phd",
  "XxX",
  "Mathematics",
  "mathematics",
  "Economics",
  "economics",
  "Computer",
  "computer",
  "Information",
  "information",
  "Management",
  "management",
  "accessing",
  "from",
  "rom",
  "platforms",
  "rms",
  "big",
  "such",
  "uch",
  "Hadoop",
  "hadoop",
  "oop",
  "HDFS",
  "hdfs",
  "DFS",
  "Scientist",
  "scientist",
  "at",
  "member",
  "ber",
  "team",
  "eam",
  "ill",
  "analyze",
  "yze",
  "build",
  "ild",
  "high",
  "igh",
  "end",
  "value",
  "lue",
  "demand",
  "planning",
  "increase",
  "ase",
  "market",
  "ket",
  "share",
  "wants",
  "needs",
  "eds",
  "intriguing",
  "Works",
  "works",
  "rks",
  "closely",
  "third",
  "ird",
  "party",
  "rty",
  "providers",
  "testing",
  "implementation",
  "Algorithms",
  "Systems",
  "clustering",
  "developing",
  "used",
  "sed",
  "range",
  "nge",
  "mining",
  "techniques",
  "ues",
  "including",
  "anomaly",
  "aly",
  "detection",
  "profiling",
  "segmentation",
  "recommendations",
  "text",
  "ext",
  "Proven",
  "proven",
  "ven",
  "track",
  "ack",
  "record",
  "ord",
  "recommendation",
  "prediction",
  "languages",
  "Scala",
  "scala",
  "ala",
  "Spark",
  "spark",
  "ark",
  "Cassandra",
  "cassandra",
  "dra",
  "Typically",
  "typically",
  "lly",
  "preferred",
  "red",
  "PHd",
  "XXx",
  "Mining",
  "Predictive",
  "Prescriptive",
  "prescriptive",
  "Analytics",
  "scikit",
  "kit",
  "learn",
  "arn",
  "Keras",
  "keras",
  "ras",
  "Graduate",
  "graduate",
  "analytically",
  "driven",
  "fields",
  "lds",
  "operations",
  "actuarial",
  "ial",
  "supervised",
  "unsupervised",
  "ensemble",
  "methods",
  "ods",
  "Means",
  "means",
  "ans",
  "PCA",
  "pca",
  "Regression",
  "regression",
  "Neural",
  "neural",
  "Networks",
  "networks",
  "Decision",
  "decision",
  "Trees",
  "trees",
  "ees",
  "Gradient",
  "gradient",
  "Boosting",
  "boosting",
  "nice",
  "ice",
  "Post",
  "post",
  "ost",
  "Doc",
  "doc",
  "advanced",
  "ced",
  "quantitative",
  "oriented",
  "discipline",
  "limited",
  "Marketing",
  "marketing",
  "Operations",
  "Research",
  "Econometrics",
  "econometrics",
  "Stochastic",
  "stochastic",
  "tic",
  "Finance",
  "finance",
  "Distributed",
  "distributed",
  "parallel",
  "lel",
  "digital",
  "tal",
  "media",
  "dia",
  "analysts",
  "engineers",
  "product",
  "uct",
  "managers",
  "multiple",
  "ple",
  "teams",
  "ams",
  "orgs",
  "rgs",
  "improve",
  "ove",
  "overall",
  "platform",
  "orm",
  "health",
  "lth",
  "The",
  "successful",
  "ful",
  "candidate",
  "this",
  "position",
  "experienced",
  "combines",
  "nes",
  "solid",
  "lid",
  "theoretical",
  "background",
  "und",
  "formulate",
  "communicate",
  "results",
  "lts",
  "make",
  "ake",
  "impression",
  "\u2022",
  "enjoy",
  "joy",
  "approaches",
  "hes",
  "ike",
  "professional",
  "backend",
  "MSSQL",
  "mssql",
  "markdown",
  "own",
  "JSON",
  "json",
  "SON",
  "HTML",
  "html",
  "TML",
  "XML",
  "xml",
  "preferably",
  "bly",
  "Big",
  "Environment",
  "High",
  "level",
  "vel",
  "competence",
  "Unix",
  "unix",
  "U",
  "nix",
  "Linux",
  "linux",
  "nux",
  "scripts",
  "pts",
  "Able",
  "able",
  "create",
  "compelling",
  "visualizations",
  "tooling",
  "DBSCAN",
  "dbscan",
  "CAN",
  "Expectation",
  "expectation",
  "Maximization",
  "maximization",
  "principal",
  "pal",
  "component",
  "factor",
  "tor",
  "At",
  "least",
  "ast",
  "Spring",
  "spring",
  "MySQL(or",
  "mysql(or",
  "(or",
  "XxXXX(xx",
  "database",
  "Lead",
  "lead",
  "ead",
  "around",
  "enterprise",
  "drive",
  "measurable",
  "outcomes",
  "mes",
  "distinctive",
  " \r",
  "SLQ",
  "slq",
  "small",
  "statistic",
  "Working",
  "working",
  "practices",
  "Agile",
  "agile",
  "ile",
  "Git",
  "git",
  "version",
  "control",
  "rol",
  "NLP",
  "nlp",
  "concepts",
  "Hidden",
  "hidden",
  "den",
  "Markov",
  "markov",
  "kov",
  "Models",
  "tagging",
  "probabilistic",
  "parsing",
  "dynamic",
  "mic",
  "Morphological",
  "morphological",
  "Part",
  "part",
  "art",
  "speech",
  "ech",
  "Understanding",
  "understanding",
  "tools(e.g",
  "e.g",
  "xxxx(x.x",
  "ElasticSearch",
  "elasticsearch",
  "XxxxxXxxxx",
  "Preferably",
  "domains",
  "ins",
  "automotive",
  "behavior",
  "ior",
  "Use",
  "utilize",
  "ize",
  "process",
  "large",
  "rge",
  "scale",
  "ale",
  "datasets",
  "ets",
  "Expert",
  "expert",
  "ert",
  "language",
  "age",
  "Julia",
  "julia",
  "lia",
  "Natural",
  "natural",
  "Language",
  "Processing(word",
  "processing(word",
  "Xxxxx(xxxx",
  "categorization",
  "topic",
  "pic",
  "application",
  "NLP)a",
  "nlp)a",
  "P)a",
  "XXX)x",
  "Bayesian",
  "bayesian",
  "ian",
  "tree",
  "based",
  "learners",
  "SVM",
  "svm",
  "RF",
  "rf",
  "XGBOOST",
  "xgboost",
  "OST",
  "time",
  "ime",
  "series",
  "dimensionality",
  "reduction",
  "SEM",
  "sem",
  "GLM",
  "glm",
  "GLMM",
  "glmm",
  "LMM",
  "regular",
  "basis",
  "Structure",
  "structure",
  "ure",
  "Algorithm",
  "Frameworks",
  "frameworks",
  "Person",
  "person",
  "son",
  "familiar",
  "iar",
  "few",
  "Pig",
  "pig",
  "BI",
  "bi",
  "  \r",
  "structured",
  "classification",
  "parameter",
  "tuning",
  "criteria",
  "ria",
  "feature",
  "selection",
  "Develop",
  "deploy",
  "loy",
  "analytic",
  "adopting",
  "Software",
  "Development",
  "methodology",
  "ogy",
  "Communication",
  "communication",
  "Skills",
  "Ability",
  "translate",
  "findings",
  "ngs",
  "into",
  "nto",
  "coherent",
  "conclusions",
  "practice",
  "leaders",
  "executives",
  "ves",
  "Build",
  "relationships",
  "ips",
  "purposes",
  "consultation",
  "driving",
  "adoption",
  "novel",
  "assets",
  "support",
  "ort",
  "variety",
  "ety",
  "initiatives",
  "Logistic",
  "logistic",
  "Linear",
  "linear",
  "ear",
  "Naive",
  "naive",
  "Bayes",
  "bayes",
  "yes",
  "Random",
  "random",
  "dom",
  "Forest",
  "forest",
  "est",
  "Using",
  "scripting",
  "Join",
  "join",
  "bring",
  "applied",
  "ied",
  "bear",
  "national",
  "importance",
  "Utilize",
  "raw",
  "aggregated",
  "SPARK",
  "ARK",
  "Familiarity",
  "familiarity",
  "warehousing",
  "principles",
  "les",
  "Help",
  "sophisticated",
  "quickly",
  "kly",
  "producing",
  "optimal",
  "mal",
  "according",
  "those",
  "ose",
  "full",
  "ull",
  "lifecycle",
  "cle",
  "conduct",
  "pipelines",
  "Advanced",
  "bioinformatics",
  "relevant",
  "ant",
  "measures",
  "confidence",
  "intervals",
  "als",
  "significance",
  "error",
  "ror",
  "measurements",
  "multivariate",
  "Great",
  "great",
  "eat",
  "active",
  "listening",
  "infer",
  "fer",
  "underlying",
  "context",
  "collaboration",
  "test",
  "impact",
  "sensor",
  "sor",
  "generated",
  "parameters",
  "key",
  "performance",
  "indicators",
  "ors",
  "interpreting",
  "mathematical",
  "Contribute",
  "contribute",
  "ute",
  "strategy",
  "egy",
  "champion",
  "capabilities",
  "open",
  "pen",
  "source",
  "rce",
  "This",
  "include",
  "ude",
  "augment",
  "mission",
  "users",
  "operational",
  "making",
  "additional",
  "faster",
  "han",
  "humans",
  "validating",
  "forecasting",
  "influencing",
  "cross",
  "functional",
  "network",
  "effects",
  "cts",
  "growth",
  "wth",
  "messaging",
  "two",
  "sided",
  "ded",
  "teasing",
  "causal",
  "sal",
  "inference",
  "endogenous",
  "ous",
  "systemsPreferred",
  "systemspreferred",
  "xxxxXxxxx",
  "qualification",
  "leading",
  "teamsExperience",
  "teamsexperience",
  "computing(Hive",
  "computing(hive",
  "xxxx(Xxxx",
  "validates",
  "tes",
  "*",
  "holds",
  "Bachelor",
  "bachelor",
  "lor",
  "Familiar",
  "required",
  "program",
  "ram",
  "Perl",
  "perl",
  "erl",
  "peer",
  "eer",
  "Confluence",
  "confluence",
  "integrated",
  "R&D",
  "r&d",
  "X&X",
  "IT",
  "Product",
  "Support",
  "Sales",
  "sales",
  "disciplinary",
  "ary",
  "focused",
  "projects",
  "involving",
  "complex",
  "lex",
  "Degree",
  "Masters",
  "masters",
  "MBA",
  "mba",
  "JD",
  "jd",
  "md",
  "focus",
  "cus",
  "discover",
  "ver",
  "identify",
  "ify",
  "algorithmic",
  "PHP",
  "php",
  "involves",
  "senior",
  "status",
  "tus",
  "risks",
  "sks",
  "Applied",
  "Google",
  "google",
  "gle",
  "Storage",
  "storage",
  "Query",
  "query",
  "ery",
  "Local",
  "local",
  "spoken",
  "ken",
  "complete",
  "ete",
  "fluency",
  "ncy",
  "English",
  "english",
  "ish",
  "Collaborate",
  "collaborate",
  "Quantitative",
  "Analysts",
  "willingness",
  "gain",
  "guide",
  "ide",
  "miner",
  "ner",
  "proprietary",
  "harnesses",
  "enable",
  "seamlessly",
  "sly",
  "coordinate",
  "optimize",
  "multichannel",
  "nel",
  "engagement",
  "HCPs",
  "hcps",
  "CPs",
  "XXXx",
  "Object",
  "object",
  "Oriented",
  "Programming",
  "OOP",
  "Languages",
  "verbal",
  "bal",
  "Ex",
  "ex",
  "Ops",
  "Translate",
  "objectives",
  "quality",
  "real",
  "eal",
  "DevOps",
  "devops",
  "XxxXxx",
  "methodologies",
  "Business",
  "applying",
  "econometric",
  "ric",
  "retail",
  "ail",
  "Basic",
  "basic",
  "sic",
  "minimum",
  "mum",
  "accredited",
  "college",
  "ege",
  "start",
  "up",
  "Scrum",
  "scrum",
  "rum",
  "STEM",
  "stem",
  "TEM",
  "Tensorflow",
  "Statistical",
  "Modeling",
  "Analysis",
  "Forecasting",
  "Boosted",
  "boosted",
  "RedShift",
  "redshift",
  "ift",
  "XxxXxxxx",
  "Athena",
  "athena",
  "ena",
  "pandas",
  "das",
  "numpy",
  "mpy",
  "scipy",
  "ipy",
  "parquet",
  "uet",
  "Possess",
  "possess",
  "system",
  "tem",
  "requirements",
  "deployment",
  "latest",
  "versions",
  "Scripting",
  "degrees",
  "customer-",
  "er-",
  "xxxx-",
  "find",
  "ind",
  "Nielsen",
  "nielsen",
  "sen",
  "Census",
  "census",
  "sus",
  "NCR",
  "ncr",
  "Experian",
  "experian",
  "applies",
  "online",
  "payments",
  "banks",
  "nks",
  "Alert",
  "alert",
  "emergent",
  "reliability",
  "issues",
  "interactions",
  "cluster",
  "patterns",
  "rns",
  "failure",
  "manufacturing",
  "predict",
  "ict",
  "self",
  "elf",
  "andor",
  "dor",
  "postdoctoral",
  "allied",
  "disciplines",
  "combine",
  "provide",
  "world",
  "rld",
  "executive",
  "vision",
  "guidance",
  "Participate",
  "participate",
  "applications",
  "OS",
  "os",
  "partner",
  "Safety",
  "safety",
  "Insurance",
  "insurance",
  "monitor",
  "experiments",
  "well",
  "ell",
  "student",
  "Clear",
  "clear",
  "Expertise",
  "handling",
  "volumes",
  "MPP",
  "mpp",
  "Teradata",
  "teradata",
  "Greenplum",
  "greenplum",
  "lum",
  "Classification",
  "Clustering",
  "Tree",
  "artificial",
  "intelligence",
  "Guide",
  "assistance",
  "also",
  "lso",
  "ensuring",
  "Define",
  "define",
  "Partner",
  "domain",
  "experts",
  "verify",
  "model",
  "del",
  "outputs",
  "uts",
  "inferences",
  "resources",
  "appropriate",
  "flow",
  "technology",
  "rapid",
  "pid",
  "prototyping",
  "inform",
  "products",
  "Coach",
  "coach",
  "ach",
  "employees",
  "levels",
  "contemporary",
  "vector",
  "machines",
  "web",
  "KML",
  "kml",
  "SOAP",
  "soap",
  "OAP",
  "Cognitive",
  "cognitive",
  "Professional",
  "assignments",
  "varied",
  "frequently",
  "require",
  "ire",
  "interpretation",
  "independent",
  "determination",
  "courses",
  "action",
  "progressively",
  "responsible",
  "area",
  "rea",
  "judgment",
  "balance",
  "attention",
  "detail",
  "swift",
  "execution",
  "maintain",
  "code",
  "ode",
  "populate",
  "log",
  "Kafka",
  "kafka",
  "fka",
  "loaded",
  "assigning",
  "standard",
  "ard",
  "terminologies",
  "Clinical",
  "clinical",
  "protocol",
  "col",
  "CRF",
  "crf",
  "designs",
  "gns",
  "association",
  "rule",
  "ule",
  "Requires",
  "requires",
  "coupled",
  "led",
  "unstructured",
  "semi",
  "emi",
  "utilizing",
  "environments",
  "sustainable",
  "prove",
  "current",
  "Artificial",
  "Intelligence",
  "equivalent",
  "Engineering",
  "RDBMS",
  "rdbms",
  "BMS",
  "worked",
  "ked",
  "DB2",
  "db2",
  "XXd",
  "IPython",
  "ipython",
  "XXxxxx",
  "confident",
  "energetic",
  "starters",
  "moderation",
  "Production",
  "deployments",
  "ideal",
  "Bachelors",
  "bachelors",
  "Required",
  "preferable",
  "Apache",
  "apache",
  "che",
  "Hawq",
  "hawq",
  "awq",
  "Jupyter",
  "jupyter",
  "Notebooks",
  "notebooks",
  "oks",
  "advance",
  "looking",
  "side",
  "another",
  "implement",
  "SparkR",
  "sparkr",
  "rkR",
  "XxxxxX",
  "PySpark",
  "pyspark",
  "XxXxxxx",
  "Perform",
  "perform",
  "ad",
  "hoc",
  "present",
  "manner",
  "starting",
  "proficiency",
  "premises",
  "hybrid",
  "rid",
  "operating",
  "containerization",
  "Docker",
  "docker",
  "ker",
  "Kubernetes",
  "kubernetes",
  "Elastic",
  "elastic",
  "Container",
  "container",
  "Service",
  "service",
  "others",
  "life",
  "ife",
  "industry",
  "try",
  "especially",
  "GTM",
  "gtm",
  "MA",
  "ma",
  "explain",
  "different",
  "output",
  "put",
  "analyses",
  "analyzes",
  "non",
  "audiences",
  "Background",
  "Demonstrates",
  "demonstrates",
  "both",
  "oth",
  "relationship",
  "hip",
  "Primary",
  "primary",
  "Shiny",
  "shiny",
  "iny",
  "which",
  "ich",
  "existing",
  "efficiencies",
  "plant",
  "aligned",
  "ned",
  "overarching",
  "strategic",
  "gic",
  "tactical",
  "write",
  "ite",
  "gather",
  "predictions",
  "future",
  "events",
  "automation",
  "apply",
  "right",
  "combination",
  "turn",
  "urn",
  "set",
  "disparate",
  "points",
  "objective",
  "answers",
  "Navy",
  "navy",
  "avy",
  "Marine",
  "marine",
  "Corps",
  "corps",
  "rps",
  "leadership",
  "informed",
  "med",
  "decisions",
  "trailblazers",
  "keep",
  "providing",
  "clients",
  "most",
  "trusted",
  "brands",
  "spanning",
  "academic",
  "patent",
  "pharmaceutical",
  "biotech",
  "IP",
  "ip",
  "modern",
  "ern",
  "shallow",
  "Work",
  "monitoring",
  "economists",
  "department",
  "dashboards",
  "rds",
  "Airflow",
  "airflow",
  "Platform",
  "beneficial",
  "transport",
  "transformation",
  "APIs",
  "apis",
  "PIs",
  "XSLT",
  "xslt",
  "SLT",
  "JDBC",
  "jdbc",
  "DBC",
  "REST",
  "rest",
  "EST",
  "acquisition",
  "presentation",
  "Building",
  "highly",
  "hly",
  "imbalanced",
  "sets",
  "Solutions",
  "Lab",
  "lab",
  "proficient",
  "designing",
  "Proficiency",
  "libraries",
  "Scikit",
  "Extracts",
  "extracts",
  "cleans",
  "converts",
  "useful",
  "Humanas",
  "humanas",
  "nas",
  "Health",
  "Team",
  "Boston",
  "boston",
  "ton",
  "Massachusettss",
  "massachusettss",
  "tss",
  "office",
  "builds",
  "behavioral",
  "underpinning",
  "Aktana",
  "aktana",
  "ana",
  "core",
  "Supervised",
  "Unsupervised",
  "Regularization",
  "regularization",
  "Forests",
  "forests",
  "Vector",
  "Machines",
  "Math",
  "math",
  "ath",
  "Dynamic",
  "presence",
  "Microsoft",
  "microsoft",
  "oft",
  "SSIS",
  "ssis",
  "SIS",
  "SSAS",
  "ssas",
  "Wells",
  "wells",
  "Fargo",
  "fargo",
  "rgo",
  "Enterprise",
  "Complaints",
  "complaints",
  "Reporting(CDAR",
  "reporting(cdar",
  "DAR",
  "Xxxxx(XXXX",
  "broad",
  "oad",
  "theories",
  "packages",
  "infrastructure",
  "opportunity",
  "surface",
  "ace",
  "topics",
  "state",
  "User",
  "user",
  "ser",
  "warehouse",
  "Netezza",
  "netezza",
  "zza",
  "Oracle",
  "oracle",
  "associated",
  "HQL",
  "hql",
  "MapReduce",
  "mapreduce",
  "uce",
  "Storm",
  "storm",
  "Yarn",
  "yarn",
  "Sqoop",
  "sqoop",
  "Redshift",
  "S3",
  "s3",
  "Xd",
  "Kinesis",
  "kinesis",
  "writing",
  "queries",
  "stored",
  "procedures",
  "established",
  "hed",
  "programmatic",
  "Effective",
  "effective",
  "creative",
  "aptitude",
  "line",
  "recommend",
  "suit",
  "uit",
  "Visual",
  "visual",
  "ual",
  "Lockheed",
  "lockheed",
  "Martin",
  "martin",
  "tin",
  "Equal",
  "equal",
  "Opportunity",
  "Affirmative",
  "affirmative",
  "Action",
  "Employer",
  "employer",
  "yer",
  "MySQL",
  "mysql",
  "Postgres",
  "postgres",
  "performing",
  "tech",
  "consulting",
  "Nets",
  "nets",
  "Nearest",
  "nearest",
  "neighbor",
  "bor",
  "CHAID",
  "chaid",
  "AID",
  "CART",
  "cart",
  "ART",
  "Cummins",
  "cummins",
  "organization",
  "uses",
  "take",
  "major",
  "jor",
  "customers",
  "leveraging",
  "fascinated",
  "by",
  "possibilities",
  "presented",
  "IoT",
  "iot",
  "?",
  "advances",
  "linked",
  "audience",
  "analyzing",
  "structures",
  "common",
  "mon",
  "KNIME",
  "knime",
  "IME",
  "Matlab",
  "Proficient",
  "JavaScript",
  "XxxxXxxxx",
  "Classifications",
  "classifications",
  "Regressions",
  "regressions",
  "Time",
  "Graphs",
  "graphs",
  "phs",
  "prototype",
  "ype",
  "ETL",
  "etl",
  "                             \r",
  "    \r",
  "leverages",
  "Problem",
  "Solving",
  "Identifies",
  "identifies",
  "resolves",
  "timely",
  "Processing",
  "processing",
  "Algebra",
  "algebra",
  "bra",
  "pre",
  "discipline(e.g",
  "specific",
  "risk",
  "isk",
  "programs",
  "strategies",
  "efficient",
  "reporting",
  "concisely",
  "stakeholders",
  "Database",
  "Tools",
  "Informatica",
  "informatica",
  "ica",
  "tracking",
  "Azure",
  "azure",
  "teamwork",
  "university",
  "fourteen",
  "een",
  "14",
  "twelve",
  "eight",
  "architecture",
  "Apply",
  "various",
  "hierarchical",
  "Neighbor",
  "Embedding",
  "embedding",
  "SNE",
  "sne",
  "components",
  "Applying",
  "tried",
  "true",
  "rue",
  "custom",
  "tom",
  "needed",
  "RegEx",
  "regex",
  "gEx",
  "XxxXx",
  "Regular",
  "Expression",
  "expression",
  "RPA",
  "rpa",
  "Robotic",
  "robotic",
  "Process",
  "Automation",
  "DataRobot",
  "datarobot",
  "bot",
  "Researches",
  "researches",
  "Clarivate",
  "clarivate",
  "websites",
  "Implements",
  "these",
  "ese",
  "devises",
  "plans",
  "validate",
  "compare",
  "community",
  "translation",
  "account",
  "unt",
  "implementations",
  "desired",
  "Server",
  "server",
  "MongoDB",
  "mongodb",
  "oDB",
  "XxxxxXX",
  "Jira",
  "jira",
  "ira",
  "manipulation",
  "generate",
  "cutting",
  "edge",
  "Exposure",
  "exposure",
  "sate",
  "Minimum",
  "traditional",
  "retrieval",
  "val",
  "Growth",
  "SaaS",
  "saas",
  "aaS",
  "XxxX",
  "consumer",
  "companies",
  "Coding",
  "coding",
  "several",
  "conversion",
  "computation",
  "Experienced",
  "numerical",
  "textual",
  "image",
  "video",
  "deo",
  "gathering",
  "massaging",
  "featurization",
  "Writing",
  "Senior",
  "validation",
  "delivery",
  "Medicare",
  "medicare",
  "Stars",
  "stars",
  "Prepare",
  "prepare",
  "best",
  "applicable",
  "available",
  "internal",
  "external",
  "Involved",
  "involved",
  "ved",
  "latent",
  "semantic",
  "indexing",
  "LSI",
  "lsi",
  "entity",
  "identification",
  "event",
  "CEP",
  "cep",
  "clustered",
  "infrastructures",
  "commerce",
  "brand",
  "passion",
  "uncovering",
  "year",
  "engineer",
  "laymen",
  "men",
  "scoping",
  "EDA",
  "eda",
  "along",
  "Lucene",
  "lucene",
  "ene",
  "Sphinx",
  "sphinx",
  "inx",
  "Nutch",
  "nutch",
  "tch",
  "Solr",
  "solr",
  "olr",
  "tasks",
  "Multiple",
  "gains",
  "areas",
  "eas",
  "AI",
  "recall",
  "precision",
  "ranking",
  "labor",
  "scheduling",
  "inventory",
  "ory",
  "capacity",
  "flows",
  "ows",
  "assortment",
  "schemas",
  "mas",
  "Qlikview",
  "DataMiner",
  "dataminer",
  "exciting",
  "Financial",
  "financial",
  "!",
  "Industry",
  "Story",
  "story",
  "Telling",
  "telling",
  "campaign",
  "evaluation",
  "experimental",
  "employ",
  "ensure",
  "advantage",
  "NSA",
  "nsa",
  "hardware",
  "foreign",
  "Django",
  "django",
  "ngo",
  "integration",
  "chosen",
  "role",
  "ole",
  "Interpret",
  "reports",
  "complied",
  "Fortran",
  "fortran",
  "ran",
  "Explore",
  "explore",
  "Incumbent",
  "incumbent",
  "physical",
  "chemistry",
  "significant",
  "Slack",
  "slack",
  "undergraduate",
  "plus)2",
  "s)2",
  "xxxx)d",
  "Applies",
  "plan",
  "lan",
  "execute",
  "assigned",
  "Family",
  "family",
  "ily",
  "Ecosystem",
  "ecosystem",
  "foundation",
  "dynamics",
  "above",
  "ideally",
  "experiment",
  "pattern",
  "Prototype",
  "productionize",
  "developed",
  "ped",
  "pipeline",
  "streamline",
  "processes",
  "channels",
  "bankcard",
  "fraud",
  "aud",
  "credit",
  "dit",
  "bankruptcy",
  "tcy",
  "CSS",
  "css",
  "acumen",
  "client",
  "segments",
  "Provide",
  "subject",
  "matter",
  "advisory",
  "Previous",
  "previous",
  "ie",
  "US",
  "Citizenship",
  "citizenship",
  "Top",
  "top",
  "Secret",
  "secret",
  "Security",
  "security",
  "clearance",
  "Roles",
  "roles",
  "Responsibilities",
  "responsibilities",
  "Conceive",
  "conceive",
  "aimed",
  "generating",
  "Communications",
  "Skill",
  "skill",
  "Highly",
  "articulate",
  "built",
  "ilt",
  "pon",
  "fundamental",
  "clarity",
  "thought",
  "Undergraduate",
  "trends",
  "Vistaprint",
  "vistaprint",
  "int",
  "Statistic",
  "evaluating",
  "deploying",
  "visualizing",
  "presenting",
  "Periscope",
  "periscope",
  "ope",
  "Objects",
  "objects",
  "D3",
  "d3",
  "ggplot",
  "lot",
  "UNIX",
  "NIX",
  "attractive",
  "wide",
  "varieties",
  "tokenization",
  "sentiment",
  "recognition",
  "summarization",
  "deliver",
  "fact",
  "etc.)All",
  "etc.)all",
  "All",
  "xxx.)Xxx",
  "duties",
  "Desired",
  "Characteristics",
  "characteristics",
  "Dealing",
  "dealing",
  "Create",
  "specifically",
  "CNN",
  "cnn",
  "RNN",
  "rnn",
  "LSTM",
  "lstm",
  "STM",
  "collaborates",
  "experimentation",
  "multi",
  "lti",
  "armed",
  "bandits",
  "Possesses",
  "possesses",
  "recommender",
  "der",
  "engines",
  "link",
  "ink",
  "conducting",
  "original",
  "yrs",
  "delivering",
  "Stronger",
  "stronger",
  "ger",
  "/Deep",
  "/deep",
  "/Xxxx",
  "Developing",
  "attribution",
  "HIVE",
  "IVE",
  "Qualifications",
  "qualifications",
  "Education",
  "education",
  "better",
  "creatively",
  "leverage",
  "sources",
  "effectiveness",
  "efficiency",
  "suites",
  "unit",
  "nit",
  "reviews",
  "ews",
  "documentation",
  "Execute",
  "implantation",
  "aggregate",
  "issuer",
  "uer",
  "feasibility",
  "leader",
  "remain",
  "Modelling",
  "creating",
  "simulation",
  "scenario",
  "rio",
  "Hierarchical",
  "Multilevel",
  "multilevel",
  "Social",
  "social",
  "Network",
  "\u2013",
  "End",
  "querying",
  "aggregation",
  "outstanding",
  "Willingness",
  "hard",
  "50",
  "hrs",
  "per",
  "week",
  "eek",
  "Continually",
  "continually",
  "refines",
  "optimizes",
  "zes",
  "OR",
  " \t\r",
  "customize",
  "Excel",
  "excel",
  "cel",
  "Enhance",
  "enhance",
  "MIS",
  "mis",
  "Creating",
  "interpretable",
  "Analyzing",
  "specialization",
  "graph",
  "aph",
  "specialized",
  "zed",
  "phases",
  "interface",
  "Prior",
  "prior",
  "fast",
  "paced",
  "directed",
  "An",
  "mindset",
  "Monitors",
  "monitors",
  "diagnoses",
  "feeds",
  "continuous",
  "improvement",
  "cycle",
  "Electrical",
  "electrical",
  "researching",
  "insight",
  "Ingestion",
  "ingestion",
  "streaming",
  "Importing",
  "importing",
  "exporting",
  "Very",
  "very",
  "good",
  "ood",
  "Nice",
  "order",
  "Conduct",
  "transaction",
  "owners",
  "deeper",
  "manipulating",
  "presentations",
  "Implement",
  "then",
  "Suite",
  "suite",
  "Adobe",
  "adobe",
  "obe",
  "ernal",
  "coworkers",
  "toolkits",
  "challenging",
  "requests",
  "possibly",
  "move",
  "Methodology",
  "IQVIA",
  "iqvia",
  "VIA",
  "Graduation",
  "graduation",
  "SparkML",
  "sparkml",
  "kML",
  "Serving",
  "serving",
  "Theano",
  "theano",
  "ano",
  "Labs",
  "labs",
  "abs",
  "transform",
  "Serve",
  "serve",
  "rve",
  "usage",
  "MMM",
  "mmm",
  "industrial",
  "types(e.g",
  "images",
  "Technology",
  "strongly",
  "gly",
  "Learn",
  "intersection",
  "math/",
  "th/",
  "xxxx/",
  "probability",
  "Projects",
  "medical",
  "imaging",
  "collaborative",
  "intra-",
  "ra-",
  "inter",
  "institutional",
  "touch",
  "electronic",
  "nic",
  "genetics",
  "Emerging",
  "emerging",
  "Technologies",
  "USSOCOM",
  "ussocom",
  "COM",
  "cyber",
  "capability",
  "operationalize",
  "missions",
  "counter",
  "terrorism",
  "ism",
  "proliferation",
  "countering",
  "weapons",
  "mass",
  "ass",
  "destruction",
  "targets",
  "hypothesis",
  "iterative",
  "approach",
  "Biased",
  "biased",
  "toward",
  "collaborator",
  "simplifier",
  "ier",
  "constantly",
  "pushing",
  "deliveryStrong",
  "deliverystrong",
  "utilities",
  "Redmine",
  "redmine",
  "containers",
  "Own",
  "ranging",
  "In",
  "engage",
  "dissect",
  "ideas",
  "DOE",
  "doe",
  "heavily",
  "Zeppelin",
  "zeppelin",
  "Z",
  "lin",
  "ongoing",
  "solvers",
  "commercial",
  "Gurobi",
  "gurobi",
  "obi",
  "CPLEX",
  "cplex",
  "LEX",
  "commonly",
  "nly",
  "matplotlib",
  "lib",
  "seaborn",
  "orn",
  "imports",
  "Multi",
  "threaded",
  "distributive",
  "architectures",
  "Cloudera",
  "cloudera",
  "era",
  "Engineers",
  "glean",
  "ean",
  "classifiers",
  "TB",
  "tb",
  "PB",
  "pb",
  "Analytical",
  "Please",
  "please",
  "note",
  "ote",
  "intensive",
  "extremely",
  "comfortable",
  "discussing",
  "learned",
  "Calculus",
  "calculus",
  "Differential",
  "differential",
  "Equations",
  "equations",
  "thrive",
  "becoming",
  "every",
  "day",
  "Manager",
  "manager",
  "Guru",
  "guru",
  "uru",
  "become",
  "integral",
  "Influencing",
  "metrics",
  "companyData",
  "companydata",
  "xxxxXxxx",
  "Infrastructure",
  "primarily",
  "helpful",
  "Job",
  "job",
  "Requirements",
  "qualificationMS",
  "qualificationms",
  "nMS",
  "xxxxXX",
  "MXNet",
  "mxnet",
  "Net",
  "XXXxx",
  "Caffe",
  "caffe",
  "ffe",
  "PyTorch",
  "pytorch",
  "Cross",
  "coordination",
  "essential",
  "variable",
  "serializing",
  "ways",
  "ays",
  "PowerBI",
  "powerbi",
  "rBI",
  "affinity",
  "coding(e.g",
  "Arc",
  "arc",
  "GIS",
  "gis",
  "Alteryx",
  "alteryx",
  "ryx",
  "Bokeh",
  "bokeh",
  "keh",
  "stack",
  "Kibana",
  "kibana",
  "expect",
  "questions",
  "methodsExperience",
  "methodsexperience",
  "Retail",
  "Group",
  "group",
  "oup",
  "Segments",
  "Run",
  "run",
  "hypotheses",
  "Analyze",
  "efforts",
  "file",
  "toolset",
  "Real",
  "Impala",
  "impala",
  "scope",
  "identifying",
  "procurement",
  "Drive",
  "facilitate",
  "features",
  "improving",
  "retention",
  "mapping",
  "cleaning",
  "front",
  "ont",
  "back",
  "example",
  "Windows",
  "windows",
  "explanatory",
  "either",
  "Ruby",
  "ruby",
  "uby",
  ".NET",
  ".net",
  "NET",
  ".XXX",
  "addition",
  "collect",
  "cleanse",
  "nse",
  "talented",
  "capable",
  "classical",
  "reinforcement",
  "drug",
  "rug",
  "discovery",
  "prevention",
  "maintenance",
  "pricing",
  "call",
  "center",
  "player",
  "pose",
  "estimation",
  "virtual",
  "assistant",
  "among",
  "arm",
  "desire",
  "continual",
  "interpersonal",
  "CS",
  "cs",
  "fundamentals",
  "reasoning",
  "determinations",
  "Office",
  "Designs",
  "executes",
  "sizes",
  "policy",
  "icy",
  "enhancement",
  "whole",
  "extract",
  "clean",
  "audit",
  "archive",
  "Jenkins",
  "jenkins",
  "gitlab",
  "Flask",
  "flask",
  "Atlassian",
  "atlassian",
  "JIRA",
  "IRA",
  "GitLab",
  "repository",
  "flexibility",
  "respond",
  "ond",
  "changing",
  "pragmatic",
  "preference",
  "simplicity",
  ".A",
  ".a",
  ".X",
  "higher",
  "Builds",
  "rich",
  "feeling",
  "supporting",
  "engaging",
  "nontechnical",
  "Power",
  "power",
  "wer",
  "Leveraging",
  "CRO",
  "cro",
  "optimizing",
  "trials",
  "Notebook",
  "notebook",
  "ook",
  "Developed",
  "designed",
  "Customer",
  "Segmentation",
  "Targeting",
  "targeting",
  "Propensity",
  "propensity",
  "Churn",
  "churn",
  "Lifetime",
  "lifetime",
  "Value",
  "Estimation",
  "Recommender",
  "Response",
  "response",
  "Incentives",
  "incentives",
  "Mix",
  "mix",
  "Price",
  "price",
  "OptimizationAbility",
  "optimizationability",
  "solver",
  "MADlib",
  "madlib",
  "XXXxxx",
  "administer",
  "early",
  "exceptions",
  "Spotfire",
  "spotfire",
  "ACAMS",
  "acams",
  "AMS",
  "certified",
  "AML",
  "aml",
  "Actimize",
  "actimize",
  "Mantas",
  "mantas",
  "tas",
  "Norkom",
  "norkom",
  "kom",
  "Performs",
  "performs",
  "involve",
  "moderately",
  "situations",
  "depth",
  "pth",
  "factors",
  "Doctoral",
  "doctoral",
  "Computational",
  "Linguistics",
  "Sciences",
  "sciences",
  "grounding",
  "facilitating",
  "training",
  "setup",
  "tup",
  "operation",
  "same",
  "ame",
  "hardest",
  "Uber",
  "uber",
  "cities",
  "people",
  "over",
  "meaningful",
  "Promote",
  "promote",
  "Junior",
  "junior",
  "analyst",
  "yst",
  "developers",
  "intellectual",
  "curiosity",
  "Solid",
  "draw",
  "interest",
  "CV",
  "cv",
  "Vision",
  "multinational",
  "trading",
  "superior",
  "worldwide",
  "access",
  "      \r",
  "solution",
  "prescribe",
  "ibe",
  "actions",
  "Between",
  "between",
  "terabyte",
  "yte",
  "corporate",
  "SciKit",
  "Kit",
  "space",
  "Worked",
  "AZURE",
  "URE",
  "Customers",
  "during",
  "after",
  "Duties",
  "Include",
  "positions",
  "forward",
  "Collection",
  "Integration",
  "Understand",
  "individual",
  "credibility",
  "influence",
  "-7",
  "-d",
  "tools(like",
  "xxxx(xxxx",
  "review",
  "JMP",
  "jmp",
  "D3.js",
  "d3.js",
  ".js",
  "Xd.xx",
  "Sharepoint",
  "sharepoint",
  "extraction",
  "conceptual",
  "LDA",
  "lda",
  "Academic",
  "concepts(i.e",
  "i.e",
  "against",
  "nst",
  "fusion",
  "independently",
  "manage",
  "functionally",
  "organizational",
  "EMR",
  "emr",
  "EC2",
  "ec2",
  "Lambda",
  "lambda",
  "bda",
  "Pandas",
  "Numpy",
  "GIT",
  "Key",
  "detect",
  "threats",
  "ats",
  "interesting",
  "consistent",
  "correct",
  "blacklists",
  "Deliver",
  "increasing",
  "breath",
  "prototypes",
  "pes",
  "MITRE",
  "mitre",
  "TRE",
  "government",
  "urgent",
  "healthcare"
]